%!PS-Adobe-3.0 EPSF-3.0
%%Title: /home/keerthikan/git/report/Speed_curve_used.eps
%%Creator: matplotlib version 1.5.3, http://matplotlib.org/
%%CreationDate: Tue Dec 13 12:01:57 2016
%%Orientation: portrait
%%BoundingBox: 18 180 594 612
%%EndComments
%%BeginProlog
/mpldict 8 dict def
mpldict begin
/m { moveto } bind def
/l { lineto } bind def
/r { rlineto } bind def
/c { curveto } bind def
/cl { closepath } bind def
/box {
m
1 index 0 r
0 exch r
neg 0 r
cl
} bind def
/clipbox {
box
clip
newpath
} bind def
%!PS-Adobe-3.0 Resource-Font
%%Title: Bitstream Vera Sans
%%Copyright: Copyright (c) 2003 by Bitstream, Inc. All Rights Reserved.
%%Creator: Converted from TrueType to type 3 by PPR
25 dict begin
/_d{bind def}bind def
/_m{moveto}_d
/_l{lineto}_d
/_cl{closepath eofill}_d
/_c{curveto}_d
/_sc{7 -1 roll{setcachedevice}{pop pop pop pop pop pop}ifelse}_d
/_e{exec}_d
/FontName /BitstreamVeraSans-Roman def
/PaintType 0 def
/FontMatrix[.001 0 0 .001 0 0]def
/FontBBox[-183 -236 1287 928]def
/FontType 3 def
/Encoding [ /space /period /zero /one /two /three /four /five /six /seven /eight /F /M /P /R /T /W /bracketleft /bracketright /a /c /d /e /h /i /l /m /n /o /p /q /r /s /t /u /y /z ] def
/FontInfo 10 dict dup begin
/FamilyName (Bitstream Vera Sans) def
/FullName (Bitstream Vera Sans) def
/Notice (Copyright (c) 2003 by Bitstream, Inc. All Rights Reserved. Bitstream Vera is a trademark of Bitstream, Inc.) def
/Weight (Roman) def
/Version (Release 1.10) def
/ItalicAngle 0.0 def
/isFixedPitch false def
/UnderlinePosition -213 def
/UnderlineThickness 143 def
end readonly def
/CharStrings 37 dict dup begin
/space{318 0 0 0 0 0 _sc
}_d
/period{318 0 107 0 210 124 _sc
107 124 _m
210 124 _l
210 0 _l
107 0 _l
107 124 _l
_cl}_d
/zero{636 0 66 -13 570 742 _sc
318 664 _m
267 664 229 639 203 589 _c
177 539 165 464 165 364 _c
165 264 177 189 203 139 _c
229 89 267 64 318 64 _c
369 64 407 89 433 139 _c
458 189 471 264 471 364 _c
471 464 458 539 433 589 _c
407 639 369 664 318 664 _c
318 742 _m
399 742 461 709 505 645 _c
548 580 570 486 570 364 _c
570 241 548 147 505 83 _c
461 19 399 -13 318 -13 _c
236 -13 173 19 130 83 _c
87 147 66 241 66 364 _c
66 486 87 580 130 645 _c
173 709 236 742 318 742 _c
_cl}_d
/one{636 0 110 0 544 729 _sc
124 83 _m
285 83 _l
285 639 _l
110 604 _l
110 694 _l
284 729 _l
383 729 _l
383 83 _l
544 83 _l
544 0 _l
124 0 _l
124 83 _l
_cl}_d
/two{{636 0 73 0 536 742 _sc
192 83 _m
536 83 _l
536 0 _l
73 0 _l
73 83 _l
110 121 161 173 226 239 _c
290 304 331 346 348 365 _c
380 400 402 430 414 455 _c
426 479 433 504 433 528 _c
433 566 419 598 392 622 _c
365 646 330 659 286 659 _c
255 659 222 653 188 643 _c
154 632 117 616 78 594 _c
78 694 _l
118 710 155 722 189 730 _c
223 738 255 742 284 742 _c
}_e{359 742 419 723 464 685 _c
509 647 532 597 532 534 _c
532 504 526 475 515 449 _c
504 422 484 390 454 354 _c
446 344 420 317 376 272 _c
332 227 271 164 192 83 _c
_cl}_e}_d
/three{{636 0 76 -13 556 742 _sc
406 393 _m
453 383 490 362 516 330 _c
542 298 556 258 556 212 _c
556 140 531 84 482 45 _c
432 6 362 -13 271 -13 _c
240 -13 208 -10 176 -4 _c
144 1 110 10 76 22 _c
76 117 _l
103 101 133 89 166 81 _c
198 73 232 69 268 69 _c
330 69 377 81 409 105 _c
441 129 458 165 458 212 _c
458 254 443 288 413 312 _c
383 336 341 349 287 349 _c
}_e{202 349 _l
202 430 _l
291 430 _l
339 430 376 439 402 459 _c
428 478 441 506 441 543 _c
441 580 427 609 401 629 _c
374 649 336 659 287 659 _c
260 659 231 656 200 650 _c
169 644 135 635 98 623 _c
98 711 _l
135 721 170 729 203 734 _c
235 739 266 742 296 742 _c
370 742 429 725 473 691 _c
517 657 539 611 539 553 _c
539 513 527 479 504 451 _c
481 423 448 403 406 393 _c
_cl}_e}_d
/four{636 0 49 0 580 729 _sc
378 643 _m
129 254 _l
378 254 _l
378 643 _l
352 729 _m
476 729 _l
476 254 _l
580 254 _l
580 172 _l
476 172 _l
476 0 _l
378 0 _l
378 172 _l
49 172 _l
49 267 _l
352 729 _l
_cl}_d
/five{{636 0 77 -13 549 729 _sc
108 729 _m
495 729 _l
495 646 _l
198 646 _l
198 467 _l
212 472 227 476 241 478 _c
255 480 270 482 284 482 _c
365 482 429 459 477 415 _c
525 370 549 310 549 234 _c
549 155 524 94 475 51 _c
426 8 357 -13 269 -13 _c
238 -13 207 -10 175 -6 _c
143 -1 111 6 77 17 _c
77 116 _l
106 100 136 88 168 80 _c
199 72 232 69 267 69 _c
}_e{323 69 368 83 401 113 _c
433 143 450 183 450 234 _c
450 284 433 324 401 354 _c
368 384 323 399 267 399 _c
241 399 214 396 188 390 _c
162 384 135 375 108 363 _c
108 729 _l
_cl}_e}_d
/six{{636 0 70 -13 573 742 _sc
330 404 _m
286 404 251 388 225 358 _c
199 328 186 286 186 234 _c
186 181 199 139 225 109 _c
251 79 286 64 330 64 _c
374 64 409 79 435 109 _c
461 139 474 181 474 234 _c
474 286 461 328 435 358 _c
409 388 374 404 330 404 _c
526 713 _m
526 623 _l
501 635 476 644 451 650 _c
425 656 400 659 376 659 _c
310 659 260 637 226 593 _c
}_e{192 549 172 482 168 394 _c
187 422 211 444 240 459 _c
269 474 301 482 336 482 _c
409 482 467 459 509 415 _c
551 371 573 310 573 234 _c
573 159 550 99 506 54 _c
462 9 403 -13 330 -13 _c
246 -13 181 19 137 83 _c
92 147 70 241 70 364 _c
70 479 97 571 152 639 _c
206 707 280 742 372 742 _c
396 742 421 739 447 735 _c
472 730 498 723 526 713 _c
_cl}_e}_d
/seven{636 0 82 0 551 729 _sc
82 729 _m
551 729 _l
551 687 _l
286 0 _l
183 0 _l
432 646 _l
82 646 _l
82 729 _l
_cl}_d
/eight{{636 0 68 -13 568 742 _sc
318 346 _m
271 346 234 333 207 308 _c
180 283 167 249 167 205 _c
167 161 180 126 207 101 _c
234 76 271 64 318 64 _c
364 64 401 76 428 102 _c
455 127 469 161 469 205 _c
469 249 455 283 429 308 _c
402 333 365 346 318 346 _c
219 388 _m
177 398 144 418 120 447 _c
96 476 85 511 85 553 _c
85 611 105 657 147 691 _c
188 725 245 742 318 742 _c
}_e{390 742 447 725 489 691 _c
530 657 551 611 551 553 _c
551 511 539 476 515 447 _c
491 418 459 398 417 388 _c
464 377 501 355 528 323 _c
554 291 568 251 568 205 _c
568 134 546 80 503 43 _c
459 5 398 -13 318 -13 _c
237 -13 175 5 132 43 _c
89 80 68 134 68 205 _c
68 251 81 291 108 323 _c
134 355 171 377 219 388 _c
183 544 _m
183 506 194 476 218 455 _c
}_e{242 434 275 424 318 424 _c
360 424 393 434 417 455 _c
441 476 453 506 453 544 _c
453 582 441 611 417 632 _c
393 653 360 664 318 664 _c
275 664 242 653 218 632 _c
194 611 183 582 183 544 _c
_cl}_e}_d
/F{575 0 98 0 517 729 _sc
98 729 _m
517 729 _l
517 646 _l
197 646 _l
197 431 _l
486 431 _l
486 348 _l
197 348 _l
197 0 _l
98 0 _l
98 729 _l
_cl}_d
/M{863 0 98 0 765 729 _sc
98 729 _m
245 729 _l
431 233 _l
618 729 _l
765 729 _l
765 0 _l
669 0 _l
669 640 _l
481 140 _l
382 140 _l
194 640 _l
194 0 _l
98 0 _l
98 729 _l
_cl}_d
/P{603 0 98 0 569 729 _sc
197 648 _m
197 374 _l
321 374 _l
367 374 402 385 427 409 _c
452 433 465 467 465 511 _c
465 555 452 588 427 612 _c
402 636 367 648 321 648 _c
197 648 _l
98 729 _m
321 729 _l
402 729 464 710 506 673 _c
548 636 569 582 569 511 _c
569 439 548 384 506 348 _c
464 311 402 293 321 293 _c
197 293 _l
197 0 _l
98 0 _l
98 729 _l
_cl}_d
/R{{695 0 98 0 666 729 _sc
444 342 _m
465 334 486 319 506 296 _c
526 272 546 240 566 199 _c
666 0 _l
560 0 _l
467 187 _l
443 235 419 268 397 284 _c
374 300 343 308 304 308 _c
197 308 _l
197 0 _l
98 0 _l
98 729 _l
321 729 _l
404 729 466 711 507 677 _c
548 642 569 589 569 519 _c
569 473 558 434 537 404 _c
515 374 484 353 444 342 _c
197 648 _m
197 389 _l
321 389 _l
}_e{368 389 404 400 428 422 _c
452 444 465 476 465 519 _c
465 561 452 593 428 615 _c
404 637 368 648 321 648 _c
197 648 _l
_cl}_e}_d
/T{611 0 -2 0 614 729 _sc
-2 729 _m
614 729 _l
614 646 _l
355 646 _l
355 0 _l
256 0 _l
256 646 _l
-2 646 _l
-2 729 _l
_cl}_d
/W{989 0 33 0 956 729 _sc
33 729 _m
133 729 _l
286 113 _l
439 729 _l
550 729 _l
703 113 _l
856 729 _l
956 729 _l
773 0 _l
649 0 _l
495 633 _l
340 0 _l
216 0 _l
33 729 _l
_cl}_d
/bracketleft{390 0 86 -131 293 760 _sc
86 760 _m
293 760 _l
293 690 _l
176 690 _l
176 -61 _l
293 -61 _l
293 -131 _l
86 -131 _l
86 760 _l
_cl}_d
/bracketright{390 0 97 -131 304 760 _sc
304 760 _m
304 -131 _l
97 -131 _l
97 -61 _l
214 -61 _l
214 690 _l
97 690 _l
97 760 _l
304 760 _l
_cl}_d
/a{{613 0 60 -13 522 560 _sc
343 275 _m
270 275 220 266 192 250 _c
164 233 150 205 150 165 _c
150 133 160 107 181 89 _c
202 70 231 61 267 61 _c
317 61 357 78 387 114 _c
417 149 432 196 432 255 _c
432 275 _l
343 275 _l
522 312 _m
522 0 _l
432 0 _l
432 83 _l
411 49 385 25 355 10 _c
325 -5 287 -13 243 -13 _c
187 -13 142 2 109 33 _c
76 64 60 106 60 159 _c
}_e{60 220 80 266 122 298 _c
163 329 224 345 306 345 _c
432 345 _l
432 354 _l
432 395 418 427 391 450 _c
364 472 326 484 277 484 _c
245 484 215 480 185 472 _c
155 464 127 453 100 439 _c
100 522 _l
132 534 164 544 195 550 _c
226 556 256 560 286 560 _c
365 560 424 539 463 498 _c
502 457 522 395 522 312 _c
_cl}_e}_d
/c{{550 0 55 -13 488 560 _sc
488 526 _m
488 442 _l
462 456 437 466 411 473 _c
385 480 360 484 334 484 _c
276 484 230 465 198 428 _c
166 391 150 339 150 273 _c
150 206 166 154 198 117 _c
230 80 276 62 334 62 _c
360 62 385 65 411 72 _c
437 79 462 90 488 104 _c
488 21 _l
462 9 436 0 410 -5 _c
383 -10 354 -13 324 -13 _c
242 -13 176 12 128 64 _c
}_e{79 115 55 185 55 273 _c
55 362 79 432 128 483 _c
177 534 244 560 330 560 _c
358 560 385 557 411 551 _c
437 545 463 537 488 526 _c
_cl}_e}_d
/d{{635 0 55 -13 544 760 _sc
454 464 _m
454 760 _l
544 760 _l
544 0 _l
454 0 _l
454 82 _l
435 49 411 25 382 10 _c
353 -5 319 -13 279 -13 _c
213 -13 159 13 117 65 _c
75 117 55 187 55 273 _c
55 359 75 428 117 481 _c
159 533 213 560 279 560 _c
319 560 353 552 382 536 _c
411 520 435 496 454 464 _c
148 273 _m
148 207 161 155 188 117 _c
215 79 253 61 301 61 _c
}_e{348 61 385 79 413 117 _c
440 155 454 207 454 273 _c
454 339 440 390 413 428 _c
385 466 348 485 301 485 _c
253 485 215 466 188 428 _c
161 390 148 339 148 273 _c
_cl}_e}_d
/e{{615 0 55 -13 562 560 _sc
562 296 _m
562 252 _l
149 252 _l
153 190 171 142 205 110 _c
238 78 284 62 344 62 _c
378 62 412 66 444 74 _c
476 82 509 95 541 113 _c
541 28 _l
509 14 476 3 442 -3 _c
408 -9 373 -13 339 -13 _c
251 -13 182 12 131 62 _c
80 112 55 181 55 268 _c
55 357 79 428 127 481 _c
175 533 241 560 323 560 _c
397 560 455 536 498 489 _c
}_e{540 441 562 377 562 296 _c
472 322 _m
471 371 457 410 431 440 _c
404 469 368 484 324 484 _c
274 484 234 469 204 441 _c
174 413 156 373 152 322 _c
472 322 _l
_cl}_e}_d
/h{634 0 91 0 549 760 _sc
549 330 _m
549 0 _l
459 0 _l
459 327 _l
459 379 448 417 428 443 _c
408 469 378 482 338 482 _c
289 482 251 466 223 435 _c
195 404 181 362 181 309 _c
181 0 _l
91 0 _l
91 760 _l
181 760 _l
181 462 _l
202 494 227 519 257 535 _c
286 551 320 560 358 560 _c
420 560 468 540 500 501 _c
532 462 549 405 549 330 _c
_cl}_d
/i{278 0 94 0 184 760 _sc
94 547 _m
184 547 _l
184 0 _l
94 0 _l
94 547 _l
94 760 _m
184 760 _l
184 646 _l
94 646 _l
94 760 _l
_cl}_d
/l{278 0 94 0 184 760 _sc
94 760 _m
184 760 _l
184 0 _l
94 0 _l
94 760 _l
_cl}_d
/m{{974 0 91 0 889 560 _sc
520 442 _m
542 482 569 511 600 531 _c
631 550 668 560 711 560 _c
767 560 811 540 842 500 _c
873 460 889 403 889 330 _c
889 0 _l
799 0 _l
799 327 _l
799 379 789 418 771 444 _c
752 469 724 482 686 482 _c
639 482 602 466 575 435 _c
548 404 535 362 535 309 _c
535 0 _l
445 0 _l
445 327 _l
445 379 435 418 417 444 _c
398 469 369 482 331 482 _c
}_e{285 482 248 466 221 435 _c
194 404 181 362 181 309 _c
181 0 _l
91 0 _l
91 547 _l
181 547 _l
181 462 _l
201 495 226 520 255 536 _c
283 552 317 560 357 560 _c
397 560 430 550 458 530 _c
486 510 506 480 520 442 _c
_cl}_e}_d
/n{634 0 91 0 549 560 _sc
549 330 _m
549 0 _l
459 0 _l
459 327 _l
459 379 448 417 428 443 _c
408 469 378 482 338 482 _c
289 482 251 466 223 435 _c
195 404 181 362 181 309 _c
181 0 _l
91 0 _l
91 547 _l
181 547 _l
181 462 _l
202 494 227 519 257 535 _c
286 551 320 560 358 560 _c
420 560 468 540 500 501 _c
532 462 549 405 549 330 _c
_cl}_d
/o{612 0 55 -13 557 560 _sc
306 484 _m
258 484 220 465 192 427 _c
164 389 150 338 150 273 _c
150 207 163 156 191 118 _c
219 80 257 62 306 62 _c
354 62 392 80 420 118 _c
448 156 462 207 462 273 _c
462 337 448 389 420 427 _c
392 465 354 484 306 484 _c
306 560 _m
384 560 445 534 490 484 _c
534 433 557 363 557 273 _c
557 183 534 113 490 63 _c
445 12 384 -13 306 -13 _c
227 -13 165 12 121 63 _c
77 113 55 183 55 273 _c
55 363 77 433 121 484 _c
165 534 227 560 306 560 _c
_cl}_d
/p{{635 0 91 -207 580 560 _sc
181 82 _m
181 -207 _l
91 -207 _l
91 547 _l
181 547 _l
181 464 _l
199 496 223 520 252 536 _c
281 552 316 560 356 560 _c
422 560 476 533 518 481 _c
559 428 580 359 580 273 _c
580 187 559 117 518 65 _c
476 13 422 -13 356 -13 _c
316 -13 281 -5 252 10 _c
223 25 199 49 181 82 _c
487 273 _m
487 339 473 390 446 428 _c
418 466 381 485 334 485 _c
}_e{286 485 249 466 222 428 _c
194 390 181 339 181 273 _c
181 207 194 155 222 117 _c
249 79 286 61 334 61 _c
381 61 418 79 446 117 _c
473 155 487 207 487 273 _c
_cl}_e}_d
/q{{635 0 55 -207 544 560 _sc
148 273 _m
148 207 161 155 188 117 _c
215 79 253 61 301 61 _c
348 61 385 79 413 117 _c
440 155 454 207 454 273 _c
454 339 440 390 413 428 _c
385 466 348 485 301 485 _c
253 485 215 466 188 428 _c
161 390 148 339 148 273 _c
454 82 _m
435 49 411 25 382 10 _c
353 -5 319 -13 279 -13 _c
213 -13 159 13 117 65 _c
75 117 55 187 55 273 _c
}_e{55 359 75 428 117 481 _c
159 533 213 560 279 560 _c
319 560 353 552 382 536 _c
411 520 435 496 454 464 _c
454 547 _l
544 547 _l
544 -207 _l
454 -207 _l
454 82 _l
_cl}_e}_d
/r{411 0 91 0 411 560 _sc
411 463 _m
401 469 390 473 378 476 _c
366 478 353 480 339 480 _c
288 480 249 463 222 430 _c
194 397 181 350 181 288 _c
181 0 _l
91 0 _l
91 547 _l
181 547 _l
181 462 _l
199 495 224 520 254 536 _c
284 552 321 560 365 560 _c
371 560 378 559 386 559 _c
393 558 401 557 411 555 _c
411 463 _l
_cl}_d
/s{{521 0 54 -13 472 560 _sc
443 531 _m
443 446 _l
417 458 391 468 364 475 _c
336 481 308 485 279 485 _c
234 485 200 478 178 464 _c
156 450 145 430 145 403 _c
145 382 153 366 169 354 _c
185 342 217 330 265 320 _c
296 313 _l
360 299 405 279 432 255 _c
458 230 472 195 472 151 _c
472 100 452 60 412 31 _c
372 1 316 -13 246 -13 _c
216 -13 186 -10 154 -5 _c
}_e{122 0 89 8 54 20 _c
54 113 _l
87 95 120 82 152 74 _c
184 65 216 61 248 61 _c
290 61 323 68 346 82 _c
368 96 380 117 380 144 _c
380 168 371 187 355 200 _c
339 213 303 226 247 238 _c
216 245 _l
160 257 119 275 95 299 _c
70 323 58 356 58 399 _c
58 450 76 490 112 518 _c
148 546 200 560 268 560 _c
301 560 332 557 362 552 _c
391 547 418 540 443 531 _c
}_e{_cl}_e}_d
/t{392 0 27 0 368 702 _sc
183 702 _m
183 547 _l
368 547 _l
368 477 _l
183 477 _l
183 180 _l
183 135 189 106 201 94 _c
213 81 238 75 276 75 _c
368 75 _l
368 0 _l
276 0 _l
206 0 158 13 132 39 _c
106 65 93 112 93 180 _c
93 477 _l
27 477 _l
27 547 _l
93 547 _l
93 702 _l
183 702 _l
_cl}_d
/u{634 0 85 -13 543 547 _sc
85 216 _m
85 547 _l
175 547 _l
175 219 _l
175 167 185 129 205 103 _c
225 77 255 64 296 64 _c
344 64 383 79 411 110 _c
439 141 453 183 453 237 _c
453 547 _l
543 547 _l
543 0 _l
453 0 _l
453 84 _l
431 50 405 26 377 10 _c
348 -5 315 -13 277 -13 _c
214 -13 166 6 134 45 _c
101 83 85 140 85 216 _c
_cl}_d
/y{592 0 30 -207 562 547 _sc
322 -50 _m
296 -114 271 -157 247 -177 _c
223 -197 191 -207 151 -207 _c
79 -207 _l
79 -132 _l
132 -132 _l
156 -132 175 -126 189 -114 _c
203 -102 218 -75 235 -31 _c
251 9 _l
30 547 _l
125 547 _l
296 119 _l
467 547 _l
562 547 _l
322 -50 _l
_cl}_d
/z{525 0 43 0 482 547 _sc
55 547 _m
482 547 _l
482 465 _l
144 72 _l
482 72 _l
482 0 _l
43 0 _l
43 82 _l
381 475 _l
55 475 _l
55 547 _l
_cl}_d
end readonly def

/BuildGlyph
 {exch begin
 CharStrings exch
 2 copy known not{pop /.notdef}if
 true 3 1 roll get exec
 end}_d

/BuildChar {
 1 index /Encoding get exch get
 1 index /BuildGlyph get exec
}_d

FontName currentdict end definefont pop
end
%%EndProlog
mpldict begin
18 180 translate
576 432 0 0 clipbox
100000 setmiterlimit
gsave
0 0 m
576 0 l
576 432 l
0 432 l
cl
1.000 setgray
fill
grestore
gsave
72 43.2 m
518.4 43.2 l
518.4 388.8 l
72 388.8 l
cl
1.000 setgray
fill
grestore
1.000 setlinewidth
1 setlinejoin
2 setlinecap
[] 0 setdash
0.000 0.000 1.000 setrgbcolor
gsave
446.4 345.6 72 43.2 clipbox
117.194879 43.793572 m
117.352831 58.888731 l
117.803364 64.541831 l
118.620235 70.728599 l
120.024431 79.400296 l
122.387057 92.449361 l
126.195857 112.224516 l
133.313912 147.862784 l
143.741109 199.066413 l
143.85564 199.631999 l
148.021428 219.939825 l
148.173241 220.684101 l
149.948591 229.319987 l
149.97342 229.144744 l
149.97342 229.144744 l
149.97342 229.144744 l
150.140861 230.2501 l
153.119556 244.729744 l
153.142566 244.491074 l
153.142566 244.491074 l
153.142566 244.491074 l
153.297347 245.577467 l
154.43525 251.077615 l
154.457421 250.900629 l
154.457421 250.900629 l
154.457421 250.900629 l
154.607639 251.931365 l
155.879614 258.076376 l
156.004796 258.694934 l
157.217967 264.572905 l
157.238832 264.348616 l
157.238832 264.348616 l
157.238832 264.348616 l
157.400214 265.460333 l
157.42045 265.538977 l
157.42045 265.538977 l
157.42045 265.538977 l
157.441117 265.372222 l
157.441117 265.372222 l
157.441117 265.372222 l
157.622041 266.860368 l
157.642162 266.604943 l
157.68233 266.831422 l
157.68233 266.831422 l
162.841098 291.749648 l
162.967574 292.36189 l
162.985616 292.43676 l
162.985616 292.43676 l
162.985616 292.43676 l
163.003968 292.29305 l
163.003968 292.29305 l
163.003968 292.29305 l
163.093748 293.338725 l
163.165738 293.272359 l
163.506201 294.942139 l
163.541901 295.125647 l
163.541901 295.125647 l
163.541901 295.125647 l
163.560244 294.832163 l
163.560244 294.832163 l
163.560244 294.832163 l
163.684496 296.2169 l
163.70229 295.90239 l
163.862193 296.674642 l
163.880528 296.306462 l
164.003891 297.379946 l
166.61138 310.206606 l
166.661955 310.141298 l
166.746238 310.806179 l
166.779958 310.788912 l
166.9148 310.802726 l
167.048129 312.086641 l
167.231868 313.516777 l
167.315163 313.312547 l
168.321931 318.421321 l
168.338291 318.867699 l
168.338291 318.867699 l
168.338291 318.867699 l
168.354651 318.384797 l
168.436358 318.739492 l
169.00508 321.401138 l
169.02194 320.868421 l
169.02194 320.868421 l
169.02194 320.868421 l
169.150412 322.112114 l
169.983097 326.188741 l
169.999663 325.668329 l
169.999663 325.668329 l
169.999663 325.668329 l
170.141854 327.017632 l
170.284401 327.660053 l
170.300211 328.375966 l
170.395112 328.089951 l
170.945242 330.748708 l
170.961188 330.521602 l
170.961188 330.521602 l
170.961188 330.521602 l
171.117089 331.608579 l
171.148325 331.704884 l
171.148325 331.704884 l
171.148325 331.704884 l
171.164267 331.436194 l
171.179656 331.70087 l
171.179656 331.70087 l
171.2573 332.647236 l
171.335143 332.618957 l
171.876701 335.305708 l
172.398282 337.845902 l
172.59655 338.799367 l
172.612509 338.156047 l
172.612509 338.156047 l
172.612509 338.156047 l
172.733483 339.369338 l
172.748661 339.458197 l
172.748661 339.458197 l
172.748661 339.458197 l
172.764215 339.170654 l
172.764215 339.170654 l
172.764215 339.170654 l
172.900375 340.938531 l
172.915937 339.826899 l
173.00632 340.79752 l
173.036564 340.90006 l
173.157439 341.405246 l
173.473515 342.957141 l
173.489077 342.446688 l
173.489077 342.446688 l
173.489077 342.446688 l
173.608514 343.63901 l
173.623935 343.273803 l
173.623935 343.273803 l
173.623935 343.273803 l
173.743273 344.15791 l
173.75879 343.643363 l
173.75879 343.643363 l
173.75879 343.643363 l
173.877586 344.946217 l
173.892515 344.990132 l
174.011696 345.641586 l
174.249437 346.748425 l
174.264499 346.539721 l
174.264499 346.539721 l
174.264499 346.539721 l
174.412406 347.438743 l
174.736955 349.058753 l
175.074587 350.696107 l
175.395875 352.162229 l
175.410788 351.840322 l
175.410788 351.840322 l
175.410788 351.840322 l
175.555913 353.00234 l
175.947092 354.902368 l
176.206541 356.93973 l
176.220925 356.196226 l
176.693911 358.648391 l
176.708791 357.796514 l
176.736753 358.595613 l
176.736753 358.595613 l
176.879345 359.350574 l
176.894208 358.662788 l
176.894208 358.662788 l
176.894208 358.662788 l
176.97895 360.453408 l
177.021631 359.930055 l
177.149351 360.633103 l
177.276975 361.149032 l
177.432405 362.436394 l
177.503056 362.269381 l
177.517924 361.446696 l
177.517924 361.446696 l
177.517924 361.446696 l
177.643908 362.982863 l
177.672068 363.09633 l
177.686498 362.736475 l
177.686498 362.736475 l
177.686498 362.736475 l
177.784569 364.633554 l
177.826659 363.932537 l
177.840688 363.987117 l
177.840688 363.987117 l
177.840688 363.987117 l
177.855068 363.625256 l
177.855068 363.625256 l
177.855068 363.625256 l
177.952937 364.882878 l
177.967391 364.011931 l
178.03693 365.227581 l
178.106845 365.22258 l
178.232623 366.346691 l
178.246548 365.969442 l
178.274411 366.090065 l
178.274411 366.090065 l
178.288344 366.982459 l
178.385866 366.568421 l
178.413733 366.684447 l
178.428204 366.090065 l
178.428204 366.090065 l
178.428204 366.090065 l
178.552758 367.346879 l
178.649937 367.767994 l
178.664201 367.367149 l
178.678175 367.311413 l
178.691576 368.628836 l
178.788453 368.521619 l
178.912949 369.073774 l
178.940613 369.787183 l
179.037147 369.679201 l
179.668692 372.677565 l
179.682377 373.349026 l
179.791509 373.291214 l
179.886948 373.738464 l
179.900584 374.55187 l
179.914212 373.870239 l
179.914212 373.870239 l
179.928496 373.096907 l
179.928496 373.096907 l
179.928496 373.096907 l
180.050161 374.567755 l
180.172425 375.130016 l
180.186015 376.025065 l
180.280809 375.646212 l
180.861394 377.705565 l
181.15808 377.700169 l
181.333392 377.710962 l
181.495228 377.700169 l
181.509046 377.26905 l
181.509046 377.26905 l
181.509046 377.26905 l
181.535677 377.710962 l
181.630078 377.700169 l
181.711443 377.123798 l
181.711443 377.123798 l
181.711443 377.123798 l
181.832363 378.137813 l
181.872821 377.700169 l
181.953735 377.710962 l
181.967226 378.283949 l
181.967226 378.283949 l
181.967226 378.283949 l
181.980713 377.689378 l
182.088597 377.694774 l
182.344818 377.710962 l
427.136732 377.640824 l
427.190874 377.376726 l
427.205155 376.351248 l
427.299163 376.860515 l
427.44829 376.158669 l
427.461884 377.048532 l
427.461884 377.048532 l
427.461884 377.048532 l
427.58414 375.523669 l
427.597726 375.779512 l
427.597726 375.779512 l
427.597726 375.779512 l
427.733969 374.758498 l
428.185296 372.536277 l
428.19973 371.592246 l
428.295164 372.04533 l
428.446535 371.285692 l
428.460316 372.107923 l
428.460316 372.107923 l
428.460316 372.107923 l
428.58437 370.658783 l
428.653433 370.297202 l
428.777929 369.730612 l
428.958287 368.639051 l
428.972254 368.475691 l
428.972254 368.475691 l
428.972254 368.475691 l
428.985915 368.690135 l
429.027562 368.501205 l
429.027562 368.501205 l
429.2642 367.362081 l
429.389832 366.689493 l
429.529655 366.074982 l
429.543629 366.558336 l
429.543629 366.558336 l
429.543629 366.558336 l
429.683898 365.292608 l
430.191 362.859622 l
430.205727 362.082926 l
430.304183 362.269381 l
430.460163 361.627518 l
430.474349 362.269381 l
430.474349 362.269381 l
430.474349 362.269381 l
430.602358 360.861657 l
430.730471 360.278765 l
430.844704 359.702839 l
431.188341 358.02578 l
431.202721 358.145322 l
431.318284 356.773675 l
431.332127 357.334222 l
431.577201 356.196226 l
431.59163 356.754709 l
431.59163 356.754709 l
431.59163 356.754709 l
431.721875 355.399822 l
431.910372 354.453208 l
432.041113 353.958763 l
432.376773 352.222086 l
432.567204 351.290038 l
432.582572 350.472835 l
432.684616 350.851222 l
432.714008 350.691548 l
432.729206 350.059046 l
432.831816 350.081752 l
432.846535 350.036342 l
432.861262 350.741713 l
432.861262 350.741713 l
432.861262 350.741713 l
432.994087 349.216735 l
433.008859 349.682604 l
433.008859 349.682604 l
433.008859 349.682604 l
433.141932 348.57229 l
433.543435 346.154154 l
433.55791 346.530847 l
433.572836 346.846215 l
433.572836 346.846215 l
433.572836 346.846215 l
433.70714 345.844638 l
433.976654 344.529652 l
434.217719 342.796897 l
434.292577 343.013484 l
434.610137 341.405246 l
434.929288 339.966992 l
434.944507 340.273108 l
434.944507 340.273108 l
434.944507 340.273108 l
435.081895 339.153757 l
435.097164 339.305899 l
435.097164 339.305899 l
435.097164 339.305899 l
435.26549 338.24418 l
435.280804 338.198008 l
435.403559 337.607451 l
435.418931 337.799855 l
435.418931 337.799855 l
435.418931 337.799855 l
435.557307 336.906888 l
435.572733 336.794608 l
435.572733 336.794608 l
435.572733 336.794608 l
435.588154 337.140038 l
435.588154 337.140038 l
435.588154 337.140038 l
435.650567 335.606402 l
435.726918 336.102041 l
435.927968 335.161759 l
435.943484 335.804456 l
435.943484 335.804456 l
435.943484 335.804456 l
436.021423 334.227494 l
436.067637 334.370523 l
436.2076 333.636439 l
436.22372 332.99917 l
436.31658 333.583565 l
436.45713 332.526078 l
436.503985 332.380822 l
436.51965 332.825119 l
436.51965 332.825119 l
436.51965 332.825119 l
436.645138 331.46825 l
436.660655 331.564461 l
436.864875 330.605231 l
436.990958 329.889986 l
437.164731 329.032437 l
437.18055 329.454642 l
437.196943 328.340673 l
437.307274 328.375966 l
437.481994 327.527437 l
437.497911 327.976488 l
437.497911 327.976488 l
437.497911 327.976488 l
437.62528 326.873972 l
438.282761 323.647396 l
438.298877 324.057634 l
438.298877 324.057634 l
438.298877 324.057634 l
438.444238 322.879534 l
439.062105 319.919824 l
439.078469 320.27849 l
439.078469 320.27849 l
439.078469 320.27849 l
439.209409 319.212619 l
439.587696 317.340666 l
439.604204 317.467575 l
439.620717 317.769 l
439.620717 317.769 l
439.620717 317.769 l
439.752946 316.556447 l
440.485939 313.01029 l
440.502696 313.094572 l
440.553011 313.312547 l
440.687472 312.009956 l
440.839145 311.297485 l
441.313714 308.998446 l
441.331421 308.339116 l
441.433002 308.420505 l
441.638065 307.44712 l
441.655172 307.936298 l
441.67233 307.689796 l
441.67233 307.689796 l
441.878385 306.24039 l
443.184159 299.951235 l
443.20256 299.263225 l
443.307712 299.342301 l
443.80475 296.941388 l
444.163407 294.685677 l
444.198611 295.052212 l
444.216616 295.450499 l
444.216616 295.450499 l
444.216616 295.450499 l
444.360642 294.244202 l
444.486965 293.665032 l
444.505064 294.061975 l
444.505064 294.061975 l
444.505064 294.061975 l
444.649884 292.86889 l
445.45397 288.968738 l
445.472413 289.38307 l
445.472413 289.38307 l
445.472413 289.38307 l
445.62006 288.129779 l
446.3648 284.537973 l
446.684736 282.997393 l
447.54182 278.852431 l
447.561057 279.069553 l
447.561057 279.069553 l
447.561057 279.069553 l
447.71511 278.009195 l
449.503194 269.353343 l
449.623524 268.762928 l
451.677216 258.802483 l
451.867106 257.709605 l
451.88788 257.789521 l
451.88788 257.789521 l
451.88788 257.789521 l
453.676671 249.17175 l
453.698681 249.444219 l
453.698681 249.444219 l
453.698681 249.444219 l
453.83096 248.464252 l
454.476491 245.342697 l
454.498956 245.553768 l
454.498956 245.553768 l
454.498956 245.553768 l
454.656366 244.446142 l
456.712984 234.512691 l
457.868247 228.943206 l
475.994339 141.921232 l
481.788479 114.569323 l
489.791778 78.67156 l
492.031594 69.763569 l
493.522897 64.475089 l
494.505667 61.382185 l
494.505667 61.382185 l
stroke
grestore
0 setlinejoin
0.000 setgray
gsave
72 388.8 m
518.4 388.8 l
stroke
grestore
gsave
518.4 43.2 m
518.4 388.8 l
stroke
grestore
gsave
72 43.2 m
518.4 43.2 l
stroke
grestore
gsave
72 43.2 m
72 388.8 l
stroke
grestore
0.500 setlinewidth
1 setlinejoin
0 setlinecap
gsave
/o {
gsave
newpath
translate
0.5 setlinewidth
1 setlinejoin
0 setlinecap
0 0 m
0 4 l

gsave
0.000 setgray
fill
grestore
stroke
grestore
} bind def
72 43.2 o
grestore
gsave
/o {
gsave
newpath
translate
0.5 setlinewidth
1 setlinejoin
0 setlinecap
0 0 m
0 -4 l

gsave
0.000 setgray
fill
grestore
stroke
grestore
} bind def
72 388.8 o
grestore
/BitstreamVeraSans-Roman findfont
12.000 scalefont
setfont
gsave
62.453125 30.075000 translate
0.000000 rotate
0.000000 0.000000 m /one glyphshow
7.634766 0.000000 m /period glyphshow
11.449219 0.000000 m /zero glyphshow
grestore
gsave
/o {
gsave
newpath
translate
0.5 setlinewidth
1 setlinejoin
0 setlinecap
0 0 m
0 4 l

gsave
0.000 setgray
fill
grestore
stroke
grestore
} bind def
121.6 43.2 o
grestore
gsave
/o {
gsave
newpath
translate
0.5 setlinewidth
1 setlinejoin
0 setlinecap
0 0 m
0 -4 l

gsave
0.000 setgray
fill
grestore
stroke
grestore
} bind def
121.6 388.8 o
grestore
gsave
112.053125 30.075000 translate
0.000000 rotate
0.000000 0.000000 m /one glyphshow
7.634766 0.000000 m /period glyphshow
11.449219 0.000000 m /five glyphshow
grestore
gsave
/o {
gsave
newpath
translate
0.5 setlinewidth
1 setlinejoin
0 setlinecap
0 0 m
0 4 l

gsave
0.000 setgray
fill
grestore
stroke
grestore
} bind def
171.2 43.2 o
grestore
gsave
/o {
gsave
newpath
translate
0.5 setlinewidth
1 setlinejoin
0 setlinecap
0 0 m
0 -4 l

gsave
0.000 setgray
fill
grestore
stroke
grestore
} bind def
171.2 388.8 o
grestore
gsave
161.653125 30.075000 translate
0.000000 rotate
0.000000 0.000000 m /two glyphshow
7.634766 0.000000 m /period glyphshow
11.449219 0.000000 m /zero glyphshow
grestore
gsave
/o {
gsave
newpath
translate
0.5 setlinewidth
1 setlinejoin
0 setlinecap
0 0 m
0 4 l

gsave
0.000 setgray
fill
grestore
stroke
grestore
} bind def
220.8 43.2 o
grestore
gsave
/o {
gsave
newpath
translate
0.5 setlinewidth
1 setlinejoin
0 setlinecap
0 0 m
0 -4 l

gsave
0.000 setgray
fill
grestore
stroke
grestore
} bind def
220.8 388.8 o
grestore
gsave
211.253125 30.075000 translate
0.000000 rotate
0.000000 0.000000 m /two glyphshow
7.634766 0.000000 m /period glyphshow
11.449219 0.000000 m /five glyphshow
grestore
gsave
/o {
gsave
newpath
translate
0.5 setlinewidth
1 setlinejoin
0 setlinecap
0 0 m
0 4 l

gsave
0.000 setgray
fill
grestore
stroke
grestore
} bind def
270.4 43.2 o
grestore
gsave
/o {
gsave
newpath
translate
0.5 setlinewidth
1 setlinejoin
0 setlinecap
0 0 m
0 -4 l

gsave
0.000 setgray
fill
grestore
stroke
grestore
} bind def
270.4 388.8 o
grestore
gsave
260.853125 30.075000 translate
0.000000 rotate
0.000000 0.000000 m /three glyphshow
7.634766 0.000000 m /period glyphshow
11.449219 0.000000 m /zero glyphshow
grestore
gsave
/o {
gsave
newpath
translate
0.5 setlinewidth
1 setlinejoin
0 setlinecap
0 0 m
0 4 l

gsave
0.000 setgray
fill
grestore
stroke
grestore
} bind def
320 43.2 o
grestore
gsave
/o {
gsave
newpath
translate
0.5 setlinewidth
1 setlinejoin
0 setlinecap
0 0 m
0 -4 l

gsave
0.000 setgray
fill
grestore
stroke
grestore
} bind def
320 388.8 o
grestore
gsave
310.453125 30.075000 translate
0.000000 rotate
0.000000 0.000000 m /three glyphshow
7.634766 0.000000 m /period glyphshow
11.449219 0.000000 m /five glyphshow
grestore
gsave
/o {
gsave
newpath
translate
0.5 setlinewidth
1 setlinejoin
0 setlinecap
0 0 m
0 4 l

gsave
0.000 setgray
fill
grestore
stroke
grestore
} bind def
369.6 43.2 o
grestore
gsave
/o {
gsave
newpath
translate
0.5 setlinewidth
1 setlinejoin
0 setlinecap
0 0 m
0 -4 l

gsave
0.000 setgray
fill
grestore
stroke
grestore
} bind def
369.6 388.8 o
grestore
gsave
360.053125 30.075000 translate
0.000000 rotate
0.000000 0.000000 m /four glyphshow
7.634766 0.000000 m /period glyphshow
11.449219 0.000000 m /zero glyphshow
grestore
gsave
/o {
gsave
newpath
translate
0.5 setlinewidth
1 setlinejoin
0 setlinecap
0 0 m
0 4 l

gsave
0.000 setgray
fill
grestore
stroke
grestore
} bind def
419.2 43.2 o
grestore
gsave
/o {
gsave
newpath
translate
0.5 setlinewidth
1 setlinejoin
0 setlinecap
0 0 m
0 -4 l

gsave
0.000 setgray
fill
grestore
stroke
grestore
} bind def
419.2 388.8 o
grestore
gsave
409.653125 30.075000 translate
0.000000 rotate
0.000000 0.000000 m /four glyphshow
7.634766 0.000000 m /period glyphshow
11.449219 0.000000 m /five glyphshow
grestore
gsave
/o {
gsave
newpath
translate
0.5 setlinewidth
1 setlinejoin
0 setlinecap
0 0 m
0 4 l

gsave
0.000 setgray
fill
grestore
stroke
grestore
} bind def
468.8 43.2 o
grestore
gsave
/o {
gsave
newpath
translate
0.5 setlinewidth
1 setlinejoin
0 setlinecap
0 0 m
0 -4 l

gsave
0.000 setgray
fill
grestore
stroke
grestore
} bind def
468.8 388.8 o
grestore
gsave
459.253125 30.075000 translate
0.000000 rotate
0.000000 0.000000 m /five glyphshow
7.634766 0.000000 m /period glyphshow
11.449219 0.000000 m /zero glyphshow
grestore
gsave
/o {
gsave
newpath
translate
0.5 setlinewidth
1 setlinejoin
0 setlinecap
0 0 m
0 4 l

gsave
0.000 setgray
fill
grestore
stroke
grestore
} bind def
518.4 43.2 o
grestore
gsave
/o {
gsave
newpath
translate
0.5 setlinewidth
1 setlinejoin
0 setlinecap
0 0 m
0 -4 l

gsave
0.000 setgray
fill
grestore
stroke
grestore
} bind def
518.4 388.8 o
grestore
gsave
508.853125 30.075000 translate
0.000000 rotate
0.000000 0.000000 m /five glyphshow
7.634766 0.000000 m /period glyphshow
11.449219 0.000000 m /five glyphshow
grestore
gsave
270.614062 13.450000 translate
0.000000 rotate
0.000000 0.000000 m /T glyphshow
7.330078 0.000000 m /i glyphshow
10.664062 0.000000 m /m glyphshow
22.353516 0.000000 m /e glyphshow
29.736328 0.000000 m /space glyphshow
33.550781 0.000000 m /bracketleft glyphshow
38.232422 0.000000 m /s glyphshow
44.484375 0.000000 m /bracketright glyphshow
grestore
gsave
/o {
gsave
newpath
translate
0.5 setlinewidth
1 setlinejoin
0 setlinecap
0 0 m
4 0 l

gsave
0.000 setgray
fill
grestore
stroke
grestore
} bind def
72 43.2 o
grestore
gsave
/o {
gsave
newpath
translate
0.5 setlinewidth
1 setlinejoin
0 setlinecap
0 0 m
-4 0 l

gsave
0.000 setgray
fill
grestore
stroke
grestore
} bind def
518.4 43.2 o
grestore
gsave
60.359375 39.887500 translate
0.000000 rotate
0.000000 0.000000 m /zero glyphshow
grestore
gsave
/o {
gsave
newpath
translate
0.5 setlinewidth
1 setlinejoin
0 setlinecap
0 0 m
4 0 l

gsave
0.000 setgray
fill
grestore
stroke
grestore
} bind def
72 86.4 o
grestore
gsave
/o {
gsave
newpath
translate
0.5 setlinewidth
1 setlinejoin
0 setlinecap
0 0 m
-4 0 l

gsave
0.000 setgray
fill
grestore
stroke
grestore
} bind def
518.4 86.4 o
grestore
gsave
37.437500 83.087500 translate
0.000000 rotate
0.000000 0.000000 m /one glyphshow
7.634766 0.000000 m /zero glyphshow
15.269531 0.000000 m /zero glyphshow
22.904297 0.000000 m /zero glyphshow
grestore
gsave
/o {
gsave
newpath
translate
0.5 setlinewidth
1 setlinejoin
0 setlinecap
0 0 m
4 0 l

gsave
0.000 setgray
fill
grestore
stroke
grestore
} bind def
72 129.6 o
grestore
gsave
/o {
gsave
newpath
translate
0.5 setlinewidth
1 setlinejoin
0 setlinecap
0 0 m
-4 0 l

gsave
0.000 setgray
fill
grestore
stroke
grestore
} bind def
518.4 129.6 o
grestore
gsave
37.437500 126.287500 translate
0.000000 rotate
0.000000 0.000000 m /two glyphshow
7.634766 0.000000 m /zero glyphshow
15.269531 0.000000 m /zero glyphshow
22.904297 0.000000 m /zero glyphshow
grestore
gsave
/o {
gsave
newpath
translate
0.5 setlinewidth
1 setlinejoin
0 setlinecap
0 0 m
4 0 l

gsave
0.000 setgray
fill
grestore
stroke
grestore
} bind def
72 172.8 o
grestore
gsave
/o {
gsave
newpath
translate
0.5 setlinewidth
1 setlinejoin
0 setlinecap
0 0 m
-4 0 l

gsave
0.000 setgray
fill
grestore
stroke
grestore
} bind def
518.4 172.8 o
grestore
gsave
37.437500 169.487500 translate
0.000000 rotate
0.000000 0.000000 m /three glyphshow
7.634766 0.000000 m /zero glyphshow
15.269531 0.000000 m /zero glyphshow
22.904297 0.000000 m /zero glyphshow
grestore
gsave
/o {
gsave
newpath
translate
0.5 setlinewidth
1 setlinejoin
0 setlinecap
0 0 m
4 0 l

gsave
0.000 setgray
fill
grestore
stroke
grestore
} bind def
72 216 o
grestore
gsave
/o {
gsave
newpath
translate
0.5 setlinewidth
1 setlinejoin
0 setlinecap
0 0 m
-4 0 l

gsave
0.000 setgray
fill
grestore
stroke
grestore
} bind def
518.4 216 o
grestore
gsave
37.437500 212.687500 translate
0.000000 rotate
0.000000 0.000000 m /four glyphshow
7.634766 0.000000 m /zero glyphshow
15.269531 0.000000 m /zero glyphshow
22.904297 0.000000 m /zero glyphshow
grestore
gsave
/o {
gsave
newpath
translate
0.5 setlinewidth
1 setlinejoin
0 setlinecap
0 0 m
4 0 l

gsave
0.000 setgray
fill
grestore
stroke
grestore
} bind def
72 259.2 o
grestore
gsave
/o {
gsave
newpath
translate
0.5 setlinewidth
1 setlinejoin
0 setlinecap
0 0 m
-4 0 l

gsave
0.000 setgray
fill
grestore
stroke
grestore
} bind def
518.4 259.2 o
grestore
gsave
37.437500 255.887500 translate
0.000000 rotate
0.000000 0.000000 m /five glyphshow
7.634766 0.000000 m /zero glyphshow
15.269531 0.000000 m /zero glyphshow
22.904297 0.000000 m /zero glyphshow
grestore
gsave
/o {
gsave
newpath
translate
0.5 setlinewidth
1 setlinejoin
0 setlinecap
0 0 m
4 0 l

gsave
0.000 setgray
fill
grestore
stroke
grestore
} bind def
72 302.4 o
grestore
gsave
/o {
gsave
newpath
translate
0.5 setlinewidth
1 setlinejoin
0 setlinecap
0 0 m
-4 0 l

gsave
0.000 setgray
fill
grestore
stroke
grestore
} bind def
518.4 302.4 o
grestore
gsave
37.437500 299.087500 translate
0.000000 rotate
0.000000 0.000000 m /six glyphshow
7.634766 0.000000 m /zero glyphshow
15.269531 0.000000 m /zero glyphshow
22.904297 0.000000 m /zero glyphshow
grestore
gsave
/o {
gsave
newpath
translate
0.5 setlinewidth
1 setlinejoin
0 setlinecap
0 0 m
4 0 l

gsave
0.000 setgray
fill
grestore
stroke
grestore
} bind def
72 345.6 o
grestore
gsave
/o {
gsave
newpath
translate
0.5 setlinewidth
1 setlinejoin
0 setlinecap
0 0 m
-4 0 l

gsave
0.000 setgray
fill
grestore
stroke
grestore
} bind def
518.4 345.6 o
grestore
gsave
37.437500 342.287500 translate
0.000000 rotate
0.000000 0.000000 m /seven glyphshow
7.634766 0.000000 m /zero glyphshow
15.269531 0.000000 m /zero glyphshow
22.904297 0.000000 m /zero glyphshow
grestore
gsave
/o {
gsave
newpath
translate
0.5 setlinewidth
1 setlinejoin
0 setlinecap
0 0 m
4 0 l

gsave
0.000 setgray
fill
grestore
stroke
grestore
} bind def
72 388.8 o
grestore
gsave
/o {
gsave
newpath
translate
0.5 setlinewidth
1 setlinejoin
0 setlinecap
0 0 m
-4 0 l

gsave
0.000 setgray
fill
grestore
stroke
grestore
} bind def
518.4 388.8 o
grestore
gsave
37.437500 385.487500 translate
0.000000 rotate
0.000000 0.000000 m /eight glyphshow
7.634766 0.000000 m /zero glyphshow
15.269531 0.000000 m /zero glyphshow
22.904297 0.000000 m /zero glyphshow
grestore
gsave
29.937500 154.234375 translate
90.000000 rotate
0.000000 0.000000 m /P glyphshow
7.236328 0.000000 m /W glyphshow
19.101562 0.000000 m /M glyphshow
29.455078 0.000000 m /space glyphshow
33.269531 0.000000 m /F glyphshow
40.171875 0.000000 m /r glyphshow
45.105469 0.000000 m /e glyphshow
52.488281 0.000000 m /q glyphshow
60.105469 0.000000 m /u glyphshow
67.710938 0.000000 m /e glyphshow
75.093750 0.000000 m /n glyphshow
82.699219 0.000000 m /c glyphshow
89.296875 0.000000 m /y glyphshow
96.398438 0.000000 m /space glyphshow
100.212891 0.000000 m /bracketleft glyphshow
104.894531 0.000000 m /h glyphshow
112.500000 0.000000 m /z glyphshow
118.798828 0.000000 m /bracketright glyphshow
grestore
/BitstreamVeraSans-Roman findfont
14.400 scalefont
setfont
gsave
166.473437 393.800000 translate
0.000000 rotate
0.000000 0.000000 m /R glyphshow
9.998947 0.000000 m /a glyphshow
18.817413 0.000000 m /m glyphshow
32.835617 0.000000 m /p glyphshow
41.970291 0.000000 m /space glyphshow
46.544647 0.000000 m /a glyphshow
55.363113 0.000000 m /p glyphshow
64.497787 0.000000 m /p glyphshow
73.632462 0.000000 m /l glyphshow
77.630630 0.000000 m /i glyphshow
81.628799 0.000000 m /e glyphshow
90.482407 0.000000 m /d glyphshow
99.617081 0.000000 m /space glyphshow
104.191437 0.000000 m /o glyphshow
112.995850 0.000000 m /n glyphshow
122.116470 0.000000 m /space glyphshow
126.690826 0.000000 m /t glyphshow
132.333237 0.000000 m /h glyphshow
141.453857 0.000000 m /e glyphshow
150.307465 0.000000 m /space glyphshow
154.881821 0.000000 m /s glyphshow
162.379272 0.000000 m /t glyphshow
168.021683 0.000000 m /e glyphshow
176.875290 0.000000 m /p glyphshow
186.009964 0.000000 m /p glyphshow
195.144638 0.000000 m /e glyphshow
203.998245 0.000000 m /r glyphshow
209.914703 0.000000 m /space glyphshow
214.489059 0.000000 m /m glyphshow
228.507263 0.000000 m /o glyphshow
237.311676 0.000000 m /t glyphshow
242.954086 0.000000 m /o glyphshow
251.758499 0.000000 m /r glyphshow
grestore

end
showpage
