%!PS-Adobe-3.0 EPSF-3.0
%%Creator: cairo 1.14.0 (http://cairographics.org)
%%CreationDate: Tue Dec 13 23:08:57 2016
%%Pages: 1
%%DocumentData: Clean7Bit
%%LanguageLevel: 2
%%BoundingBox: 0 0 576 432
%%EndComments
%%BeginProlog
save
50 dict begin
/q { gsave } bind def
/Q { grestore } bind def
/cm { 6 array astore concat } bind def
/w { setlinewidth } bind def
/J { setlinecap } bind def
/j { setlinejoin } bind def
/M { setmiterlimit } bind def
/d { setdash } bind def
/m { moveto } bind def
/l { lineto } bind def
/c { curveto } bind def
/h { closepath } bind def
/re { exch dup neg 3 1 roll 5 3 roll moveto 0 rlineto
      0 exch rlineto 0 rlineto closepath } bind def
/S { stroke } bind def
/f { fill } bind def
/f* { eofill } bind def
/n { newpath } bind def
/W { clip } bind def
/W* { eoclip } bind def
/BT { } bind def
/ET { } bind def
/pdfmark where { pop globaldict /?pdfmark /exec load put }
    { globaldict begin /?pdfmark /pop load def /pdfmark
    /cleartomark load def end } ifelse
/BDC { mark 3 1 roll /BDC pdfmark } bind def
/EMC { mark /EMC pdfmark } bind def
/cairo_store_point { /cairo_point_y exch def /cairo_point_x exch def } def
/Tj { show currentpoint cairo_store_point } bind def
/TJ {
  {
    dup
    type /stringtype eq
    { show } { -0.001 mul 0 cairo_font_matrix dtransform rmoveto } ifelse
  } forall
  currentpoint cairo_store_point
} bind def
/cairo_selectfont { cairo_font_matrix aload pop pop pop 0 0 6 array astore
    cairo_font exch selectfont cairo_point_x cairo_point_y moveto } bind def
/Tf { pop /cairo_font exch def /cairo_font_matrix where
      { pop cairo_selectfont } if } bind def
/Td { matrix translate cairo_font_matrix matrix concatmatrix dup
      /cairo_font_matrix exch def dup 4 get exch 5 get cairo_store_point
      /cairo_font where { pop cairo_selectfont } if } bind def
/Tm { 2 copy 8 2 roll 6 array astore /cairo_font_matrix exch def
      cairo_store_point /cairo_font where { pop cairo_selectfont } if } bind def
/g { setgray } bind def
/rg { setrgbcolor } bind def
/d1 { setcachedevice } bind def
%%EndProlog
%%BeginSetup
%%EndSetup
%%Page: 1 1
%%BeginPageSetup
%%PageBoundingBox: 0 0 576 432
%%EndPageSetup
q 0 0 576 432 rectclip q
1 g
0 0 576 432 rectfill
72 388.801 446.398 -345.602 re f
Q q
72 388.801 446.398 -345.602 re W n
q
72 389 447 -346 re W n
  q
0 0 1 rg
1 w
2 J
1 j
[] 0.0 d
100000 M 117.195 43.793 m 117.352 58.891 l 117.805 64.543 l 118.621 70.73 l 120.023
 79.398 l 122.387 92.449 l 126.195 112.223 l 133.312 147.863 l 143.742 199.066
 l 143.855 199.633 l 148.02 219.941 l 148.172 220.684 l 149.949 229.32 l
 149.973 229.145 l 150.141 230.25 l 153.121 244.73 l 153.141 244.492 l 153.297
 245.578 l 154.434 251.078 l 154.457 250.902 l 154.609 251.93 l 155.879 
258.078 l 156.004 258.695 l 157.219 264.574 l 157.238 264.348 l 157.398 
265.461 l 157.422 265.539 l 157.441 265.371 l 157.621 266.859 l 157.641 
266.605 l 157.684 266.832 l 162.84 291.75 l 162.969 292.363 l 162.984 292.438
 l 163.004 292.293 l 163.094 293.34 l 163.164 293.273 l 163.508 294.941 
l 163.543 295.125 l 163.559 294.832 l 163.684 296.219 l 163.703 295.902 
l 163.863 296.676 l 163.879 296.305 l 164.004 297.379 l 166.613 310.207 
l 166.66 310.141 l 166.746 310.805 l 166.781 310.789 l 166.914 310.801 l
 167.047 312.086 l 167.23 313.516 l 167.316 313.312 l 168.32 318.422 l 168.34
 318.867 l 168.355 318.387 l 168.438 318.738 l 169.004 321.402 l 169.023
 320.867 l 169.152 322.113 l 169.984 326.188 l 170 325.668 l 170.141 327.02
 l 170.285 327.66 l 170.301 328.375 l 170.395 328.09 l 170.945 330.75 l 
170.961 330.523 l 171.117 331.609 l 171.148 331.703 l 171.164 331.438 l 
171.18 331.699 l 171.258 332.648 l 171.336 332.617 l 171.875 335.305 l 172.398
 337.848 l 172.598 338.801 l 172.613 338.156 l 172.734 339.371 l 172.75 
339.457 l 172.766 339.172 l 172.898 340.938 l 172.914 339.828 l 173.008 
340.797 l 173.035 340.898 l 173.156 341.406 l 173.473 342.957 l 173.488 
342.445 l 173.609 343.641 l 173.625 343.273 l 173.742 344.156 l 173.758 
343.645 l 173.879 344.945 l 173.891 344.988 l 174.012 345.641 l 174.25 346.75
 l 174.266 346.539 l 174.414 347.438 l 174.738 349.059 l 175.074 350.695
 l 175.395 352.164 l 175.41 351.84 l 175.555 353.004 l 175.945 354.902 l
 176.207 356.941 l 176.223 356.195 l 176.695 358.648 l 176.707 357.797 l
 176.738 358.594 l 176.879 359.352 l 176.895 358.664 l 176.98 360.453 l 
177.023 359.93 l 177.148 360.633 l 177.277 361.148 l 177.434 362.438 l 177.504
 362.27 l 177.52 361.445 l 177.645 362.984 l 177.672 363.098 l 177.688 362.738
 l 177.785 364.633 l 177.828 363.934 l 177.84 363.988 l 177.855 363.625 
l 177.953 364.883 l 177.969 364.012 l 178.035 365.227 l 178.105 365.223 
l 178.234 366.348 l 178.246 365.969 l 178.273 366.09 l 178.289 366.984 l
 178.387 366.57 l 178.414 366.684 l 178.43 366.09 l 178.555 367.348 l 178.648
 367.77 l 178.664 367.367 l 178.68 367.312 l 178.691 368.629 l 178.789 368.523
 l 178.914 369.074 l 178.941 369.789 l 179.039 369.68 l 179.668 372.676 
l 179.684 373.348 l 179.793 373.293 l 179.887 373.738 l 179.902 374.551 
l 179.914 373.871 l 179.93 373.098 l 180.051 374.566 l 180.172 375.129 l
 180.188 376.023 l 180.281 375.645 l 180.863 377.707 l 181.156 377.699 l
 181.332 377.711 l 181.496 377.699 l 181.508 377.27 l 181.535 377.711 l 
181.629 377.699 l 181.711 377.125 l 181.832 378.137 l 181.871 377.699 l 
181.953 377.711 l 181.969 378.285 l 181.98 377.688 l 182.09 377.695 l 182.344
 377.711 l 427.137 377.641 l 427.191 377.375 l 427.207 376.352 l 427.301
 376.859 l 427.449 376.16 l 427.461 377.047 l 427.586 375.523 l 427.598 
375.781 l 427.734 374.758 l 428.184 372.535 l 428.199 371.594 l 428.297 
372.047 l 428.445 371.285 l 428.461 372.109 l 428.586 370.66 l 428.652 370.297
 l 428.777 369.73 l 428.957 368.641 l 428.973 368.477 l 428.984 368.691 
l 429.027 368.5 l 429.266 367.363 l 429.391 366.691 l 429.531 366.074 l 
429.543 366.559 l 429.684 365.293 l 430.191 362.859 l 430.207 362.082 l 
430.305 362.27 l 430.461 361.629 l 430.473 362.27 l 430.602 360.863 l 430.73
 360.277 l 430.844 359.703 l 431.188 358.027 l 431.203 358.145 l 431.316
 356.773 l 431.332 357.336 l 431.578 356.195 l 431.59 356.754 l 431.723 
355.398 l 431.91 354.453 l 432.043 353.957 l 432.375 352.223 l 432.566 351.289
 l 432.582 350.473 l 432.684 350.852 l 432.715 350.691 l 432.73 350.059 
l 432.832 350.082 l 432.848 350.035 l 432.859 350.742 l 432.992 349.215 
l 433.008 349.684 l 433.141 348.574 l 433.543 346.152 l 433.559 346.531 
l 433.574 346.848 l 433.707 345.844 l 433.977 344.531 l 434.219 342.797 
l 434.293 343.012 l 434.609 341.406 l 434.93 339.969 l 434.945 340.273 l
 435.082 339.152 l 435.098 339.305 l 435.266 338.246 l 435.281 338.199 l
 435.402 337.609 l 435.418 337.801 l 435.559 336.906 l 435.574 336.793 l
 435.59 337.141 l 435.652 335.605 l 435.727 336.102 l 435.93 335.16 l 435.945
 335.805 l 436.02 334.227 l 436.066 334.371 l 436.207 333.637 l 436.223 
333 l 436.316 333.582 l 436.457 332.527 l 436.504 332.379 l 436.52 332.824
 l 436.645 331.469 l 436.66 331.566 l 436.863 330.605 l 436.992 329.891 
l 437.164 329.031 l 437.18 329.453 l 437.195 328.34 l 437.309 328.375 l 
437.48 327.527 l 437.496 327.977 l 437.625 326.875 l 438.281 323.648 l 438.301
 324.059 l 438.445 322.879 l 439.062 319.918 l 439.078 320.277 l 439.211
 319.211 l 439.586 317.34 l 439.605 317.469 l 439.621 317.77 l 439.754 316.555
 l 440.484 313.012 l 440.504 313.094 l 440.555 313.312 l 440.688 312.012
 l 440.84 311.297 l 441.312 309 l 441.332 308.34 l 441.434 308.422 l 441.637
 307.445 l 441.656 307.938 l 441.672 307.691 l 441.879 306.242 l 443.184
 299.953 l 443.203 299.262 l 443.309 299.344 l 443.805 296.941 l 444.164
 294.688 l 444.199 295.051 l 444.215 295.449 l 444.359 294.246 l 444.488
 293.664 l 444.504 294.062 l 444.648 292.867 l 445.453 288.969 l 445.473
 289.383 l 445.621 288.129 l 446.363 284.539 l 446.684 282.996 l 447.543
 278.852 l 447.562 279.07 l 447.715 278.008 l 449.504 269.352 l 449.625 
268.762 l 451.676 258.801 l 451.867 257.711 l 451.887 257.789 l 453.676 
249.172 l 453.699 249.445 l 453.832 248.465 l 454.477 245.344 l 454.5 245.555
 l 454.656 244.445 l 456.715 234.512 l 457.867 228.941 l 475.996 141.922
 l 481.789 114.57 l 489.793 78.672 l 492.031 69.762 l 493.523 64.477 l 494.504
 61.383 l S
  Q
Q
Q q
0 g
1 w
2 J
0 j
[] 0.0 d
100000 M 72 388.801 m 518.398 388.801 l S
518.398 43.199 m 518.398 388.801 l S
72 43.199 m 518.398 43.199 l S
72 43.199 m 72 388.801 l S
0.5 w
0 J
1 j
72 43.199 m 72 47.199 l S
72 388.801 m 72 384.801 l S
63.945 31.078 m 65.879 31.078 l 65.879 37.754 l 63.777 37.332 l 63.777 
38.41 l 65.867 38.832 l 67.051 38.832 l 67.051 31.078 l 68.984 31.078 l 
68.984 30.082 l 63.945 30.082 l h
63.945 31.078 m f
71.375 31.57 1.238 -1.488 re f
77.723 38.051 m 77.113 38.051 76.652 37.75 76.348 37.152 c 76.039 36.551
 75.887 35.652 75.887 34.445 c 75.887 33.25 76.039 32.348 76.348 31.75 c
 76.652 31.148 77.113 30.848 77.723 30.848 c 78.336 30.848 78.793 31.148
 79.102 31.75 c 79.41 32.348 79.562 33.25 79.562 34.445 c 79.562 35.652 
79.41 36.551 79.102 37.152 c 78.793 37.75 78.336 38.051 77.723 38.051 c 
77.723 38.988 m 78.703 38.988 79.453 38.602 79.969 37.824 c 80.488 37.047
 80.746 35.922 80.746 34.445 c 80.746 32.973 80.488 31.852 79.969 31.074
 c 79.453 30.297 78.703 29.91 77.723 29.91 c 76.742 29.91 75.992 30.297 
75.477 31.074 c 74.957 31.852 74.699 32.973 74.699 34.445 c 74.699 35.922
 74.957 37.047 75.477 37.824 c 75.992 38.602 76.742 38.988 77.723 38.988
 c f
121.602 43.199 m 121.602 47.199 l S
121.602 388.801 m 121.602 384.801 l S
113.547 31.078 m 115.48 31.078 l 115.48 37.754 l 113.375 37.332 l 113.375
 38.41 l 115.469 38.832 l 116.652 38.832 l 116.652 31.078 l 118.586 31.078
 l 118.586 30.082 l 113.547 30.082 l h
113.547 31.078 m f
120.977 31.57 1.234 -1.488 re f
124.805 38.832 m 129.449 38.832 l 129.449 37.832 l 125.887 37.832 l 125.887
 35.691 l 126.059 35.75 126.23 35.793 126.402 35.82 c 126.574 35.852 126.746
 35.863 126.918 35.863 c 127.895 35.863 128.668 35.598 129.238 35.062 c 
129.809 34.527 130.094 33.801 130.094 32.891 c 130.094 31.949 129.801 31.215
 129.215 30.691 c 128.629 30.172 127.801 29.91 126.734 29.91 c 126.367 29.91
 125.996 29.941 125.613 30.004 c 125.234 30.066 124.84 30.16 124.434 30.285
 c 124.434 31.477 l 124.785 31.285 125.148 31.145 125.523 31.051 c 125.898
 30.957 126.293 30.91 126.711 30.91 c 127.387 30.91 127.922 31.086 128.316
 31.441 c 128.711 31.797 128.91 32.277 128.91 32.891 c 128.91 33.496 128.711
 33.98 128.316 34.336 c 127.922 34.691 127.387 34.867 126.711 34.867 c 126.395
 34.867 126.078 34.832 125.766 34.766 c 125.449 34.695 125.129 34.586 124.805
 34.438 c h
124.805 38.832 m f
171.199 43.199 m 171.199 47.199 l S
171.199 388.801 m 171.199 384.801 l S
163.961 31.078 m 168.09 31.078 l 168.09 30.082 l 162.539 30.082 l 162.539
 31.078 l 162.984 31.543 163.598 32.168 164.375 32.949 c 165.148 33.734 
165.637 34.238 165.836 34.465 c 166.215 34.891 166.48 35.25 166.629 35.547
 c 166.781 35.84 166.855 36.129 166.855 36.414 c 166.855 36.879 166.691 
37.258 166.367 37.551 c 166.039 37.844 165.613 37.992 165.09 37.992 c 164.719
 37.992 164.328 37.93 163.914 37.801 c 163.504 37.672 163.062 37.477 162.594
 37.211 c 162.594 38.41 l 163.07 38.602 163.516 38.746 163.93 38.844 c 164.344
 38.938 164.727 38.988 165.07 38.988 c 165.977 38.988 166.699 38.762 167.234
 38.309 c 167.773 37.855 168.043 37.25 168.043 36.492 c 168.043 36.133 167.977
 35.793 167.844 35.469 c 167.707 35.148 167.465 34.77 167.105 34.332 c 167.008
 34.219 166.699 33.891 166.176 33.348 c 165.652 32.809 164.914 32.051 163.961
 31.078 c f
170.574 31.57 1.238 -1.488 re f
176.922 38.051 m 176.312 38.051 175.855 37.75 175.547 37.152 c 175.242 
36.551 175.086 35.652 175.086 34.445 c 175.086 33.25 175.242 32.348 175.547
 31.75 c 175.855 31.148 176.312 30.848 176.922 30.848 c 177.535 30.848 177.996
 31.148 178.301 31.75 c 178.609 32.348 178.762 33.25 178.762 34.445 c 178.762
 35.652 178.609 36.551 178.301 37.152 c 177.996 37.75 177.535 38.051 176.922
 38.051 c 176.922 38.988 m 177.902 38.988 178.652 38.602 179.168 37.824 
c 179.688 37.047 179.945 35.922 179.945 34.445 c 179.945 32.973 179.688 
31.852 179.168 31.074 c 178.652 30.297 177.902 29.91 176.922 29.91 c 175.941
 29.91 175.191 30.297 174.676 31.074 c 174.156 31.852 173.898 32.973 173.898
 34.445 c 173.898 35.922 174.156 37.047 174.676 37.824 c 175.191 38.602 
175.941 38.988 176.922 38.988 c f
220.801 43.199 m 220.801 47.199 l S
220.801 388.801 m 220.801 384.801 l S
213.562 31.078 m 217.691 31.078 l 217.691 30.082 l 212.137 30.082 l 212.137
 31.078 l 212.586 31.543 213.199 32.168 213.973 32.949 c 214.75 33.734 215.238
 34.238 215.438 34.465 c 215.812 34.891 216.078 35.25 216.23 35.547 c 216.379
 35.84 216.457 36.129 216.457 36.414 c 216.457 36.879 216.293 37.258 215.965
 37.551 c 215.641 37.844 215.215 37.992 214.691 37.992 c 214.32 37.992 213.93
 37.93 213.516 37.801 c 213.105 37.672 212.664 37.477 212.195 37.211 c 212.195
 38.41 l 212.672 38.602 213.117 38.746 213.531 38.844 c 213.945 38.938 214.324
 38.988 214.668 38.988 c 215.574 38.988 216.297 38.762 216.836 38.309 c 
217.375 37.855 217.645 37.25 217.645 36.492 c 217.645 36.133 217.578 35.793
 217.441 35.469 c 217.309 35.148 217.062 34.77 216.707 34.332 c 216.609 
34.219 216.297 33.891 215.773 33.348 c 215.254 32.809 214.516 32.051 213.562
 31.078 c f
220.176 31.57 1.238 -1.488 re f
224.004 38.832 m 228.648 38.832 l 228.648 37.832 l 225.086 37.832 l 225.086
 35.691 l 225.258 35.75 225.43 35.793 225.602 35.82 c 225.773 35.852 225.945
 35.863 226.117 35.863 c 227.094 35.863 227.867 35.598 228.438 35.062 c 
229.008 34.527 229.293 33.801 229.293 32.891 c 229.293 31.949 229 31.215
 228.414 30.691 c 227.828 30.172 227.004 29.91 225.938 29.91 c 225.57 29.91
 225.195 29.941 224.812 30.004 c 224.434 30.066 224.039 30.16 223.633 30.285
 c 223.633 31.477 l 223.984 31.285 224.348 31.145 224.723 31.051 c 225.098
 30.957 225.496 30.91 225.91 30.91 c 226.59 30.91 227.121 31.086 227.516
 31.441 c 227.91 31.797 228.109 32.277 228.109 32.891 c 228.109 33.496 227.91
 33.98 227.516 34.336 c 227.121 34.691 226.59 34.867 225.91 34.867 c 225.594
 34.867 225.281 34.832 224.965 34.766 c 224.652 34.695 224.332 34.586 224.004
 34.438 c h
224.004 38.832 m f
270.398 43.199 m 270.398 47.199 l S
270.398 388.801 m 270.398 384.801 l S
265.727 34.801 m 266.293 34.68 266.734 34.426 267.055 34.043 c 267.371 
33.66 267.531 33.188 267.531 32.625 c 267.531 31.762 267.234 31.094 266.641
 30.621 c 266.047 30.148 265.203 29.91 264.109 29.91 c 263.742 29.91 263.367
 29.949 262.977 30.02 c 262.59 30.094 262.188 30.203 261.773 30.348 c 261.773
 31.488 l 262.102 31.297 262.461 31.152 262.848 31.055 c 263.242 30.957 
263.648 30.91 264.074 30.91 c 264.816 30.91 265.383 31.055 265.77 31.348
 c 266.16 31.641 266.355 32.066 266.355 32.625 c 266.355 33.141 266.172 
33.543 265.812 33.832 c 265.449 34.125 264.949 34.27 264.305 34.27 c 263.285
 34.27 l 263.285 35.242 l 264.352 35.242 l 264.934 35.242 265.379 35.359
 265.688 35.594 c 265.996 35.824 266.148 36.16 266.148 36.598 c 266.148 
37.047 265.988 37.391 265.672 37.629 c 265.355 37.871 264.898 37.992 264.305
 37.992 c 263.98 37.992 263.633 37.957 263.262 37.887 c 262.891 37.816 262.48
 37.707 262.035 37.559 c 262.035 38.613 l 262.484 38.738 262.906 38.832 
263.301 38.895 c 263.691 38.957 264.062 38.988 264.41 38.988 c 265.309 38.988
 266.02 38.785 266.543 38.375 c 267.066 37.969 267.328 37.418 267.328 36.723
 c 267.328 36.234 267.188 35.828 266.91 35.492 c 266.633 35.16 266.238 34.93
 265.727 34.801 c f
269.773 31.57 1.238 -1.488 re f
276.121 38.051 m 275.512 38.051 275.055 37.75 274.746 37.152 c 274.441 
36.551 274.289 35.652 274.289 34.445 c 274.289 33.25 274.441 32.348 274.746
 31.75 c 275.055 31.148 275.512 30.848 276.121 30.848 c 276.734 30.848 277.195
 31.148 277.5 31.75 c 277.809 32.348 277.961 33.25 277.961 34.445 c 277.961
 35.652 277.809 36.551 277.5 37.152 c 277.195 37.75 276.734 38.051 276.121
 38.051 c 276.121 38.988 m 277.102 38.988 277.852 38.602 278.371 37.824 
c 278.887 37.047 279.145 35.922 279.145 34.445 c 279.145 32.973 278.887 
31.852 278.371 31.074 c 277.852 30.297 277.102 29.91 276.121 29.91 c 275.141
 29.91 274.391 30.297 273.875 31.074 c 273.355 31.852 273.098 32.973 273.098
 34.445 c 273.098 35.922 273.355 37.047 273.875 37.824 c 274.391 38.602 
275.141 38.988 276.121 38.988 c f
320 43.199 m 320 47.199 l S
320 388.801 m 320 384.801 l S
315.328 34.801 m 315.895 34.68 316.336 34.426 316.652 34.043 c 316.973 
33.66 317.133 33.188 317.133 32.625 c 317.133 31.762 316.836 31.094 316.242
 30.621 c 315.648 30.148 314.805 29.91 313.711 29.91 c 313.344 29.91 312.965
 29.949 312.578 30.02 c 312.188 30.094 311.785 30.203 311.375 30.348 c 311.375
 31.488 l 311.699 31.297 312.059 31.152 312.449 31.055 c 312.84 30.957 313.25
 30.91 313.676 30.91 c 314.418 30.91 314.98 31.055 315.371 31.348 c 315.758
 31.641 315.953 32.066 315.953 32.625 c 315.953 33.141 315.773 33.543 315.41
 33.832 c 315.051 34.125 314.547 34.27 313.906 34.27 c 312.883 34.27 l 312.883
 35.242 l 313.953 35.242 l 314.531 35.242 314.977 35.359 315.285 35.594 
c 315.594 35.824 315.75 36.16 315.75 36.598 c 315.75 37.047 315.59 37.391
 315.27 37.629 c 314.953 37.871 314.5 37.992 313.906 37.992 c 313.578 37.992
 313.23 37.957 312.859 37.887 c 312.488 37.816 312.082 37.707 311.637 37.559
 c 311.637 38.613 l 312.086 38.738 312.508 38.832 312.898 38.895 c 313.293
 38.957 313.66 38.988 314.008 38.988 c 314.906 38.988 315.617 38.785 316.141
 38.375 c 316.664 37.969 316.926 37.418 316.926 36.723 c 316.926 36.234 
316.789 35.828 316.512 35.492 c 316.234 35.16 315.84 34.93 315.328 34.801
 c f
319.375 31.57 1.238 -1.488 re f
323.203 38.832 m 327.848 38.832 l 327.848 37.832 l 324.285 37.832 l 324.285
 35.691 l 324.457 35.75 324.629 35.793 324.801 35.82 c 324.973 35.852 325.145
 35.863 325.316 35.863 c 326.293 35.863 327.066 35.598 327.637 35.062 c 
328.207 34.527 328.496 33.801 328.496 32.891 c 328.496 31.949 328.199 31.215
 327.613 30.691 c 327.027 30.172 326.203 29.91 325.137 29.91 c 324.77 29.91
 324.395 29.941 324.012 30.004 c 323.633 30.066 323.238 30.16 322.832 30.285
 c 322.832 31.477 l 323.184 31.285 323.547 31.145 323.922 31.051 c 324.297
 30.957 324.695 30.91 325.113 30.91 c 325.789 30.91 326.324 31.086 326.715
 31.441 c 327.113 31.797 327.309 32.277 327.309 32.891 c 327.309 33.496 
327.113 33.98 326.715 34.336 c 326.324 34.691 325.789 34.867 325.113 34.867
 c 324.797 34.867 324.48 34.832 324.164 34.766 c 323.852 34.695 323.531 
34.586 323.203 34.438 c h
323.203 38.832 m f
369.602 43.199 m 369.602 47.199 l S
369.602 388.801 m 369.602 384.801 l S
364.594 37.801 m 361.605 33.129 l 364.594 33.129 l h
364.281 38.832 m 365.77 38.832 l 365.77 33.129 l 367.02 33.129 l 367.02
 32.145 l 365.77 32.145 l 365.77 30.082 l 364.594 30.082 l 364.594 32.145
 l 360.645 32.145 l 360.645 33.285 l h
364.281 38.832 m f
368.977 31.57 1.234 -1.488 re f
375.32 38.051 m 374.711 38.051 374.254 37.75 373.945 37.152 c 373.641 36.551
 373.488 35.652 373.488 34.445 c 373.488 33.25 373.641 32.348 373.945 31.75
 c 374.254 31.148 374.711 30.848 375.32 30.848 c 375.934 30.848 376.395 
31.148 376.699 31.75 c 377.008 32.348 377.164 33.25 377.164 34.445 c 377.164
 35.652 377.008 36.551 376.699 37.152 c 376.395 37.75 375.934 38.051 375.32
 38.051 c 375.32 38.988 m 376.301 38.988 377.051 38.602 377.57 37.824 c 
378.086 37.047 378.344 35.922 378.344 34.445 c 378.344 32.973 378.086 31.852
 377.57 31.074 c 377.051 30.297 376.301 29.91 375.32 29.91 c 374.34 29.91
 373.594 30.297 373.074 31.074 c 372.559 31.852 372.297 32.973 372.297 34.445
 c 372.297 35.922 372.559 37.047 373.074 37.824 c 373.594 38.602 374.34 
38.988 375.32 38.988 c f
419.199 43.199 m 419.199 47.199 l S
419.199 388.801 m 419.199 384.801 l S
414.195 37.801 m 411.203 33.129 l 414.195 33.129 l h
413.883 38.832 m 415.371 38.832 l 415.371 33.129 l 416.621 33.129 l 416.621
 32.145 l 415.371 32.145 l 415.371 30.082 l 414.195 30.082 l 414.195 32.145
 l 410.246 32.145 l 410.246 33.285 l h
413.883 38.832 m f
418.574 31.57 1.238 -1.488 re f
422.402 38.832 m 427.051 38.832 l 427.051 37.832 l 423.488 37.832 l 423.488
 35.691 l 423.656 35.75 423.828 35.793 424 35.82 c 424.172 35.852 424.344
 35.863 424.52 35.863 c 425.496 35.863 426.266 35.598 426.836 35.062 c 427.41
 34.527 427.695 33.801 427.695 32.891 c 427.695 31.949 427.402 31.215 426.816
 30.691 c 426.23 30.172 425.402 29.91 424.336 29.91 c 423.969 29.91 423.594
 29.941 423.215 30.004 c 422.832 30.066 422.441 30.16 422.035 30.285 c 422.035
 31.477 l 422.387 31.285 422.746 31.145 423.121 31.051 c 423.496 30.957 
423.895 30.91 424.312 30.91 c 424.988 30.91 425.523 31.086 425.918 31.441
 c 426.312 31.797 426.508 32.277 426.508 32.891 c 426.508 33.496 426.312
 33.98 425.918 34.336 c 425.523 34.691 424.988 34.867 424.312 34.867 c 423.996
 34.867 423.68 34.832 423.363 34.766 c 423.051 34.695 422.73 34.586 422.402
 34.438 c h
422.402 38.832 m f
468.801 43.199 m 468.801 47.199 l S
468.801 388.801 m 468.801 384.801 l S
460.555 38.832 m 465.199 38.832 l 465.199 37.832 l 461.637 37.832 l 461.637
 35.691 l 461.809 35.75 461.98 35.793 462.152 35.82 c 462.324 35.852 462.496
 35.863 462.668 35.863 c 463.645 35.863 464.418 35.598 464.988 35.062 c 
465.559 34.527 465.844 33.801 465.844 32.891 c 465.844 31.949 465.551 31.215
 464.965 30.691 c 464.379 30.172 463.555 29.91 462.488 29.91 c 462.121 29.91
 461.746 29.941 461.363 30.004 c 460.984 30.066 460.59 30.16 460.184 30.285
 c 460.184 31.477 l 460.535 31.285 460.898 31.145 461.273 31.051 c 461.648
 30.957 462.047 30.91 462.461 30.91 c 463.141 30.91 463.672 31.086 464.066
 31.441 c 464.461 31.797 464.66 32.277 464.66 32.891 c 464.66 33.496 464.461
 33.98 464.066 34.336 c 463.672 34.691 463.141 34.867 462.461 34.867 c 462.145
 34.867 461.832 34.832 461.516 34.766 c 461.203 34.695 460.883 34.586 460.555
 34.438 c h
460.555 38.832 m f
468.176 31.57 1.238 -1.488 re f
474.52 38.051 m 473.914 38.051 473.453 37.75 473.148 37.152 c 472.84 36.551
 472.688 35.652 472.688 34.445 c 472.688 33.25 472.84 32.348 473.148 31.75
 c 473.453 31.148 473.914 30.848 474.52 30.848 c 475.137 30.848 475.594 
31.148 475.902 31.75 c 476.207 32.348 476.363 33.25 476.363 34.445 c 476.363
 35.652 476.207 36.551 475.902 37.152 c 475.594 37.75 475.137 38.051 474.52
 38.051 c 474.52 38.988 m 475.504 38.988 476.25 38.602 476.77 37.824 c 477.285
 37.047 477.547 35.922 477.547 34.445 c 477.547 32.973 477.285 31.852 476.77
 31.074 c 476.25 30.297 475.504 29.91 474.52 29.91 c 473.543 29.91 472.793
 30.297 472.273 31.074 c 471.758 31.852 471.5 32.973 471.5 34.445 c 471.5
 35.922 471.758 37.047 472.273 37.824 c 472.793 38.602 473.543 38.988 474.52
 38.988 c f
518.398 43.199 m 518.398 47.199 l S
518.398 388.801 m 518.398 384.801 l S
510.152 38.832 m 514.801 38.832 l 514.801 37.832 l 511.238 37.832 l 511.238
 35.691 l 511.41 35.75 511.578 35.793 511.75 35.82 c 511.922 35.852 512.098
 35.863 512.27 35.863 c 513.246 35.863 514.02 35.598 514.59 35.062 c 515.16
 34.527 515.445 33.801 515.445 32.891 c 515.445 31.949 515.152 31.215 514.566
 30.691 c 513.98 30.172 513.152 29.91 512.086 29.91 c 511.719 29.91 511.344
 29.941 510.965 30.004 c 510.582 30.066 510.191 30.16 509.785 30.285 c 509.785
 31.477 l 510.137 31.285 510.5 31.145 510.875 31.051 c 511.25 30.957 511.645
 30.91 512.062 30.91 c 512.738 30.91 513.273 31.086 513.668 31.441 c 514.062
 31.797 514.262 32.277 514.262 32.891 c 514.262 33.496 514.062 33.98 513.668
 34.336 c 513.273 34.691 512.738 34.867 512.062 34.867 c 511.746 34.867 
511.43 34.832 511.117 34.766 c 510.801 34.695 510.48 34.586 510.152 34.438
 c h
510.152 38.832 m f
517.773 31.57 1.238 -1.488 re f
521.602 38.832 m 526.25 38.832 l 526.25 37.832 l 522.688 37.832 l 522.688
 35.691 l 522.859 35.75 523.027 35.793 523.199 35.82 c 523.371 35.852 523.547
 35.863 523.719 35.863 c 524.695 35.863 525.469 35.598 526.039 35.062 c 
526.609 34.527 526.895 33.801 526.895 32.891 c 526.895 31.949 526.602 31.215
 526.016 30.691 c 525.43 30.172 524.602 29.91 523.535 29.91 c 523.168 29.91
 522.793 29.941 522.414 30.004 c 522.031 30.066 521.641 30.16 521.234 30.285
 c 521.234 31.477 l 521.586 31.285 521.949 31.145 522.324 31.051 c 522.699
 30.957 523.094 30.91 523.512 30.91 c 524.188 30.91 524.723 31.086 525.117
 31.441 c 525.512 31.797 525.711 32.277 525.711 32.891 c 525.711 33.496 
525.512 33.98 525.117 34.336 c 524.723 34.691 524.188 34.867 523.512 34.867
 c 523.195 34.867 522.879 34.832 522.566 34.766 c 522.25 34.695 521.93 34.586
 521.602 34.438 c h
521.602 38.832 m f
270.586 22.219 m 277.984 22.219 l 277.984 21.219 l 274.879 21.219 l 274.879
 13.469 l 273.691 13.469 l 273.691 21.219 l 270.586 21.219 l h
270.586 22.219 m f
279.074 20.031 m 280.152 20.031 l 280.152 13.469 l 279.074 13.469 l h
279.074 22.586 m 280.152 22.586 l 280.152 21.219 l 279.074 21.219 l h
279.074 22.586 m f
287.52 18.77 m 287.789 19.254 288.113 19.613 288.488 19.844 c 288.863 20.074
 289.305 20.188 289.809 20.188 c 290.492 20.188 291.023 19.949 291.395 19.469
 c 291.766 18.992 291.949 18.312 291.949 17.43 c 291.949 13.469 l 290.867
 13.469 l 290.867 17.395 l 290.867 18.023 290.754 18.488 290.531 18.793 
c 290.309 19.098 289.969 19.25 289.512 19.25 c 288.953 19.25 288.512 19.066
 288.188 18.695 c 287.863 18.324 287.699 17.816 287.699 17.176 c 287.699
 13.469 l 286.617 13.469 l 286.617 17.395 l 286.617 18.027 286.508 18.496
 286.285 18.797 c 286.062 19.098 285.719 19.25 285.254 19.25 c 284.699 19.25
 284.262 19.062 283.938 18.691 c 283.613 18.32 283.453 17.812 283.453 17.176
 c 283.453 13.469 l 282.367 13.469 l 282.367 20.031 l 283.453 20.031 l 283.453
 19.012 l 283.699 19.414 283.992 19.711 284.336 19.902 c 284.68 20.094 285.09
 20.188 285.562 20.188 c 286.039 20.188 286.445 20.066 286.777 19.824 c 
287.113 19.582 287.359 19.23 287.52 18.77 c f
299.711 17.02 m 299.711 16.492 l 294.754 16.492 l 294.805 15.75 295.027
 15.184 295.426 14.797 c 295.828 14.406 296.383 14.211 297.098 14.211 c 
297.512 14.211 297.914 14.262 298.305 14.363 c 298.691 14.465 299.078 14.617
 299.461 14.82 c 299.461 13.801 l 299.074 13.637 298.676 13.512 298.27 13.426
 c 297.863 13.34 297.453 13.297 297.035 13.297 c 295.988 13.297 295.16 13.602
 294.547 14.211 c 293.938 14.82 293.629 15.645 293.629 16.688 c 293.629 
17.758 293.922 18.609 294.5 19.242 c 295.082 19.871 295.863 20.188 296.848
 20.188 c 297.73 20.188 298.43 19.902 298.941 19.336 c 299.457 18.766 299.711
 17.996 299.711 17.02 c 298.633 17.336 m 298.629 17.926 298.461 18.395 298.141
 18.746 c 297.816 19.098 297.391 19.273 296.859 19.273 c 296.258 19.273 
295.777 19.105 295.414 18.766 c 295.055 18.426 294.848 17.945 294.789 17.328
 c h
298.633 17.336 m f
305.195 22.586 m 307.68 22.586 l 307.68 21.75 l 306.273 21.75 l 306.273
 12.723 l 307.68 12.723 l 307.68 11.887 l 305.195 11.887 l h
305.195 22.586 m f
314.16 19.836 m 314.16 18.816 l 313.859 18.973 313.543 19.09 313.211 19.168
 c 312.887 19.246 312.547 19.285 312.191 19.285 c 311.656 19.285 311.258
 19.203 310.988 19.039 c 310.723 18.875 310.586 18.629 310.586 18.301 c 
310.586 18.051 310.684 17.855 310.875 17.715 c 311.066 17.57 311.449 17.434
 312.031 17.305 c 312.398 17.223 l 313.164 17.059 313.707 16.828 314.031
 16.531 c 314.352 16.23 314.516 15.812 314.516 15.281 c 314.516 14.668 314.273
 14.188 313.789 13.828 c 313.309 13.477 312.645 13.297 311.801 13.297 c 
311.449 13.297 311.082 13.332 310.703 13.402 c 310.32 13.469 309.918 13.57
 309.5 13.707 c 309.5 14.82 l 309.898 14.613 310.289 14.457 310.676 14.355
 c 311.062 14.254 311.445 14.203 311.824 14.203 c 312.332 14.203 312.723
 14.289 312.996 14.461 c 313.27 14.637 313.406 14.879 313.406 15.195 c 313.406
 15.488 313.309 15.715 313.109 15.871 c 312.914 16.027 312.48 16.176 311.812
 16.32 c 311.438 16.41 l 310.77 16.551 310.285 16.766 309.988 17.059 c 309.691
 17.348 309.547 17.746 309.547 18.254 c 309.547 18.871 309.766 19.348 310.203
 19.684 c 310.641 20.02 311.262 20.188 312.066 20.188 c 312.461 20.188 312.836
 20.16 313.188 20.102 c 313.539 20.043 313.863 19.953 314.16 19.836 c f
318.75 22.586 m 318.75 11.887 l 316.266 11.887 l 316.266 12.723 l 317.668
 12.723 l 317.668 21.75 l 316.266 21.75 l 316.266 22.586 l h
318.75 22.586 m f
72 43.199 m 76 43.199 l S
518.398 43.199 m 514.398 43.199 l S
64.18 47.859 m 63.57 47.859 63.113 47.559 62.805 46.957 c 62.5 46.359 62.344
 45.457 62.344 44.254 c 62.344 43.055 62.5 42.156 62.805 41.555 c 63.113
 40.957 63.57 40.656 64.18 40.656 c 64.793 40.656 65.254 40.957 65.559 41.555
 c 65.867 42.156 66.02 43.055 66.02 44.254 c 66.02 45.457 65.867 46.359 
65.559 46.957 c 65.254 47.559 64.793 47.859 64.18 47.859 c 64.18 48.797 
m 65.16 48.797 65.91 48.406 66.426 47.629 c 66.945 46.855 67.203 45.73 67.203
 44.254 c 67.203 42.781 66.945 41.656 66.426 40.879 c 65.91 40.105 65.16
 39.719 64.18 39.719 c 63.199 39.719 62.449 40.105 61.934 40.879 c 61.414
 41.656 61.156 42.781 61.156 44.254 c 61.156 45.73 61.414 46.855 61.934 
47.629 c 62.449 48.406 63.199 48.797 64.18 48.797 c f
72 86.398 m 76 86.398 l S
518.398 86.398 m 514.398 86.398 l S
38.949 84.086 m 40.883 84.086 l 40.883 90.758 l 38.777 90.336 l 38.777 
91.414 l 40.871 91.836 l 42.055 91.836 l 42.055 84.086 l 43.988 84.086 l
 43.988 83.09 l 38.949 83.09 l h
38.949 84.086 m f
48.91 91.059 m 48.301 91.059 47.84 90.758 47.535 90.156 c 47.227 89.559
 47.074 88.656 47.074 87.453 c 47.074 86.254 47.227 85.355 47.535 84.754
 c 47.84 84.156 48.301 83.855 48.91 83.855 c 49.523 83.855 49.98 84.156 
50.289 84.754 c 50.598 85.355 50.75 86.254 50.75 87.453 c 50.75 88.656 50.598
 89.559 50.289 90.156 c 49.98 90.758 49.523 91.059 48.91 91.059 c 48.91 
91.996 m 49.891 91.996 50.641 91.605 51.156 90.832 c 51.676 90.055 51.934
 88.93 51.934 87.453 c 51.934 85.98 51.676 84.855 51.156 84.082 c 50.641
 83.305 49.891 82.918 48.91 82.918 c 47.93 82.918 47.18 83.305 46.664 84.082
 c 46.145 84.855 45.887 85.98 45.887 87.453 c 45.887 88.93 46.145 90.055
 46.664 90.832 c 47.18 91.605 47.93 91.996 48.91 91.996 c f
56.543 91.059 m 55.934 91.059 55.477 90.758 55.168 90.156 c 54.863 89.559
 54.711 88.656 54.711 87.453 c 54.711 86.254 54.863 85.355 55.168 84.754
 c 55.477 84.156 55.934 83.855 56.543 83.855 c 57.156 83.855 57.617 84.156
 57.922 84.754 c 58.23 85.355 58.383 86.254 58.383 87.453 c 58.383 88.656
 58.23 89.559 57.922 90.156 c 57.617 90.758 57.156 91.059 56.543 91.059 
c 56.543 91.996 m 57.523 91.996 58.273 91.605 58.793 90.832 c 59.309 90.055
 59.566 88.93 59.566 87.453 c 59.566 85.98 59.309 84.855 58.793 84.082 c
 58.273 83.305 57.523 82.918 56.543 82.918 c 55.562 82.918 54.816 83.305
 54.297 84.082 c 53.781 84.855 53.52 85.98 53.52 87.453 c 53.52 88.93 53.781
 90.055 54.297 90.832 c 54.816 91.605 55.562 91.996 56.543 91.996 c f
64.18 91.059 m 63.57 91.059 63.109 90.758 62.805 90.156 c 62.496 89.559
 62.344 88.656 62.344 87.453 c 62.344 86.254 62.496 85.355 62.805 84.754
 c 63.109 84.156 63.57 83.855 64.18 83.855 c 64.793 83.855 65.25 84.156 
65.559 84.754 c 65.867 85.355 66.02 86.254 66.02 87.453 c 66.02 88.656 65.867
 89.559 65.559 90.156 c 65.25 90.758 64.793 91.059 64.18 91.059 c 64.18 
91.996 m 65.16 91.996 65.91 91.605 66.426 90.832 c 66.945 90.055 67.203 
88.93 67.203 87.453 c 67.203 85.98 66.945 84.855 66.426 84.082 c 65.91 83.305
 65.16 82.918 64.18 82.918 c 63.199 82.918 62.449 83.305 61.934 84.082 c
 61.414 84.855 61.156 85.98 61.156 87.453 c 61.156 88.93 61.414 90.055 61.934
 90.832 c 62.449 91.605 63.199 91.996 64.18 91.996 c f
72 129.602 m 76 129.602 l S
518.398 129.602 m 514.398 129.602 l S
39.762 127.285 m 43.895 127.285 l 43.895 126.289 l 38.34 126.289 l 38.34
 127.285 l 38.789 127.75 39.398 128.375 40.176 129.156 c 40.953 129.938 
41.438 130.445 41.637 130.672 c 42.016 131.098 42.281 131.457 42.43 131.754
 c 42.582 132.047 42.656 132.336 42.656 132.621 c 42.656 133.086 42.496 
133.465 42.168 133.758 c 41.844 134.051 41.418 134.199 40.895 134.199 c 
40.523 134.199 40.129 134.137 39.719 134.008 c 39.305 133.879 38.867 133.684
 38.398 133.418 c 38.398 134.617 l 38.875 134.809 39.32 134.953 39.734 135.047
 c 40.148 135.145 40.527 135.195 40.871 135.195 c 41.777 135.195 42.5 134.969
 43.039 134.516 c 43.578 134.062 43.848 133.457 43.848 132.699 c 43.848 
132.34 43.777 132 43.645 131.676 c 43.512 131.355 43.266 130.977 42.91 130.539
 c 42.812 130.422 42.5 130.098 41.977 129.555 c 41.453 129.016 40.715 128.258
 39.762 127.285 c f
48.91 134.258 m 48.301 134.258 47.84 133.957 47.535 133.359 c 47.227 132.758
 47.074 131.859 47.074 130.652 c 47.074 129.453 47.227 128.555 47.535 127.957
 c 47.84 127.355 48.301 127.055 48.91 127.055 c 49.523 127.055 49.98 127.355
 50.289 127.957 c 50.598 128.555 50.75 129.453 50.75 130.652 c 50.75 131.859
 50.598 132.758 50.289 133.359 c 49.98 133.957 49.523 134.258 48.91 134.258
 c 48.91 135.195 m 49.891 135.195 50.641 134.809 51.156 134.031 c 51.676
 133.254 51.934 132.129 51.934 130.652 c 51.934 129.18 51.676 128.059 51.156
 127.281 c 50.641 126.504 49.891 126.117 48.91 126.117 c 47.93 126.117 47.18
 126.504 46.664 127.281 c 46.145 128.059 45.887 129.18 45.887 130.652 c 
45.887 132.129 46.145 133.254 46.664 134.031 c 47.18 134.809 47.93 135.195
 48.91 135.195 c f
56.543 134.258 m 55.934 134.258 55.477 133.957 55.168 133.359 c 54.863 
132.758 54.711 131.859 54.711 130.652 c 54.711 129.453 54.863 128.555 55.168
 127.957 c 55.477 127.355 55.934 127.055 56.543 127.055 c 57.156 127.055
 57.617 127.355 57.922 127.957 c 58.23 128.555 58.383 129.453 58.383 130.652
 c 58.383 131.859 58.23 132.758 57.922 133.359 c 57.617 133.957 57.156 134.258
 56.543 134.258 c 56.543 135.195 m 57.523 135.195 58.273 134.809 58.793 
134.031 c 59.309 133.254 59.566 132.129 59.566 130.652 c 59.566 129.18 59.309
 128.059 58.793 127.281 c 58.273 126.504 57.523 126.117 56.543 126.117 c
 55.562 126.117 54.816 126.504 54.297 127.281 c 53.781 128.059 53.52 129.18
 53.52 130.652 c 53.52 132.129 53.781 133.254 54.297 134.031 c 54.816 134.809
 55.562 135.195 56.543 135.195 c f
64.18 134.258 m 63.57 134.258 63.109 133.957 62.805 133.359 c 62.496 132.758
 62.344 131.859 62.344 130.652 c 62.344 129.453 62.496 128.555 62.805 127.957
 c 63.109 127.355 63.57 127.055 64.18 127.055 c 64.793 127.055 65.25 127.355
 65.559 127.957 c 65.867 128.555 66.02 129.453 66.02 130.652 c 66.02 131.859
 65.867 132.758 65.559 133.359 c 65.25 133.957 64.793 134.258 64.18 134.258
 c 64.18 135.195 m 65.16 135.195 65.91 134.809 66.426 134.031 c 66.945 133.254
 67.203 132.129 67.203 130.652 c 67.203 129.18 66.945 128.059 66.426 127.281
 c 65.91 126.504 65.16 126.117 64.18 126.117 c 63.199 126.117 62.449 126.504
 61.934 127.281 c 61.414 128.059 61.156 129.18 61.156 130.652 c 61.156 132.129
 61.414 133.254 61.934 134.031 c 62.449 134.809 63.199 135.195 64.18 135.195
 c f
72 172.801 m 76 172.801 l S
518.398 172.801 m 514.398 172.801 l S
42.328 174.207 m 42.895 174.086 43.336 173.832 43.656 173.449 c 43.973 
173.066 44.133 172.594 44.133 172.031 c 44.133 171.168 43.836 170.5 43.242
 170.027 c 42.648 169.555 41.805 169.316 40.711 169.316 c 40.344 169.316
 39.969 169.355 39.578 169.426 c 39.191 169.5 38.789 169.609 38.375 169.754
 c 38.375 170.895 l 38.703 170.703 39.062 170.559 39.453 170.461 c 39.844
 170.363 40.25 170.316 40.676 170.316 c 41.418 170.316 41.984 170.461 42.371
 170.754 c 42.762 171.047 42.957 171.473 42.957 172.031 c 42.957 172.547
 42.773 172.949 42.414 173.242 c 42.051 173.531 41.551 173.676 40.906 173.676
 c 39.887 173.676 l 39.887 174.652 l 40.953 174.652 l 41.535 174.652 41.98
 174.766 42.289 175 c 42.598 175.23 42.75 175.566 42.75 176.004 c 42.75 
176.453 42.594 176.797 42.273 177.039 c 41.957 177.277 41.5 177.398 40.906
 177.398 c 40.582 177.398 40.234 177.363 39.863 177.293 c 39.492 177.223
 39.082 177.113 38.637 176.965 c 38.637 178.02 l 39.086 178.145 39.508 178.238
 39.902 178.301 c 40.293 178.363 40.664 178.395 41.012 178.395 c 41.91 178.395
 42.621 178.191 43.145 177.781 c 43.668 177.375 43.93 176.824 43.93 176.129
 c 43.93 175.645 43.789 175.234 43.512 174.898 c 43.234 174.566 42.84 174.336
 42.328 174.207 c f
48.91 177.457 m 48.301 177.457 47.84 177.156 47.535 176.559 c 47.227 175.957
 47.074 175.059 47.074 173.855 c 47.074 172.656 47.227 171.754 47.535 171.156
 c 47.84 170.555 48.301 170.254 48.91 170.254 c 49.523 170.254 49.98 170.555
 50.289 171.156 c 50.598 171.754 50.75 172.656 50.75 173.855 c 50.75 175.059
 50.598 175.957 50.289 176.559 c 49.98 177.156 49.523 177.457 48.91 177.457
 c 48.91 178.395 m 49.891 178.395 50.641 178.008 51.156 177.23 c 51.676 
176.457 51.934 175.328 51.934 173.855 c 51.934 172.383 51.676 171.258 51.156
 170.48 c 50.641 169.707 49.891 169.316 48.91 169.316 c 47.93 169.316 47.18
 169.707 46.664 170.48 c 46.145 171.258 45.887 172.383 45.887 173.855 c 
45.887 175.328 46.145 176.457 46.664 177.23 c 47.18 178.008 47.93 178.395
 48.91 178.395 c f
56.543 177.457 m 55.934 177.457 55.477 177.156 55.168 176.559 c 54.863 
175.957 54.711 175.059 54.711 173.855 c 54.711 172.656 54.863 171.754 55.168
 171.156 c 55.477 170.555 55.934 170.254 56.543 170.254 c 57.156 170.254
 57.617 170.555 57.922 171.156 c 58.23 171.754 58.383 172.656 58.383 173.855
 c 58.383 175.059 58.23 175.957 57.922 176.559 c 57.617 177.156 57.156 177.457
 56.543 177.457 c 56.543 178.395 m 57.523 178.395 58.273 178.008 58.793 
177.23 c 59.309 176.457 59.566 175.328 59.566 173.855 c 59.566 172.383 59.309
 171.258 58.793 170.48 c 58.273 169.707 57.523 169.316 56.543 169.316 c 
55.562 169.316 54.816 169.707 54.297 170.48 c 53.781 171.258 53.52 172.383
 53.52 173.855 c 53.52 175.328 53.781 176.457 54.297 177.23 c 54.816 178.008
 55.562 178.395 56.543 178.395 c f
64.18 177.457 m 63.57 177.457 63.109 177.156 62.805 176.559 c 62.496 175.957
 62.344 175.059 62.344 173.855 c 62.344 172.656 62.496 171.754 62.805 171.156
 c 63.109 170.555 63.57 170.254 64.18 170.254 c 64.793 170.254 65.25 170.555
 65.559 171.156 c 65.867 171.754 66.02 172.656 66.02 173.855 c 66.02 175.059
 65.867 175.957 65.559 176.559 c 65.25 177.156 64.793 177.457 64.18 177.457
 c 64.18 178.395 m 65.16 178.395 65.91 178.008 66.426 177.23 c 66.945 176.457
 67.203 175.328 67.203 173.855 c 67.203 172.383 66.945 171.258 66.426 170.48
 c 65.91 169.707 65.16 169.316 64.18 169.316 c 63.199 169.316 62.449 169.707
 61.934 170.48 c 61.414 171.258 61.156 172.383 61.156 173.855 c 61.156 175.328
 61.414 176.457 61.934 177.23 c 62.449 178.008 63.199 178.395 64.18 178.395
 c f
72 216 m 76 216 l S
518.398 216 m 514.398 216 l S
41.996 220.406 m 39.008 215.734 l 41.996 215.734 l h
41.684 221.438 m 43.172 221.438 l 43.172 215.734 l 44.422 215.734 l 44.422
 214.75 l 43.172 214.75 l 43.172 212.688 l 41.996 212.688 l 41.996 214.75
 l 38.047 214.75 l 38.047 215.895 l h
41.684 221.438 m f
48.91 220.656 m 48.301 220.656 47.84 220.359 47.535 219.758 c 47.227 219.16
 47.074 218.258 47.074 217.055 c 47.074 215.855 47.227 214.957 47.535 214.355
 c 47.84 213.754 48.301 213.457 48.91 213.457 c 49.523 213.457 49.98 213.754
 50.289 214.355 c 50.598 214.957 50.75 215.855 50.75 217.055 c 50.75 218.258
 50.598 219.16 50.289 219.758 c 49.98 220.359 49.523 220.656 48.91 220.656
 c 48.91 221.594 m 49.891 221.594 50.641 221.207 51.156 220.43 c 51.676 
219.656 51.934 218.531 51.934 217.055 c 51.934 215.582 51.676 214.457 51.156
 213.68 c 50.641 212.906 49.891 212.52 48.91 212.52 c 47.93 212.52 47.18
 212.906 46.664 213.68 c 46.145 214.457 45.887 215.582 45.887 217.055 c 
45.887 218.531 46.145 219.656 46.664 220.43 c 47.18 221.207 47.93 221.594
 48.91 221.594 c f
56.543 220.656 m 55.934 220.656 55.477 220.359 55.168 219.758 c 54.863 
219.16 54.711 218.258 54.711 217.055 c 54.711 215.855 54.863 214.957 55.168
 214.355 c 55.477 213.754 55.934 213.457 56.543 213.457 c 57.156 213.457
 57.617 213.754 57.922 214.355 c 58.23 214.957 58.383 215.855 58.383 217.055
 c 58.383 218.258 58.23 219.16 57.922 219.758 c 57.617 220.359 57.156 220.656
 56.543 220.656 c 56.543 221.594 m 57.523 221.594 58.273 221.207 58.793 
220.43 c 59.309 219.656 59.566 218.531 59.566 217.055 c 59.566 215.582 59.309
 214.457 58.793 213.68 c 58.273 212.906 57.523 212.52 56.543 212.52 c 55.562
 212.52 54.816 212.906 54.297 213.68 c 53.781 214.457 53.52 215.582 53.52
 217.055 c 53.52 218.531 53.781 219.656 54.297 220.43 c 54.816 221.207 55.562
 221.594 56.543 221.594 c f
64.18 220.656 m 63.57 220.656 63.109 220.359 62.805 219.758 c 62.496 219.16
 62.344 218.258 62.344 217.055 c 62.344 215.855 62.496 214.957 62.805 214.355
 c 63.109 213.754 63.57 213.457 64.18 213.457 c 64.793 213.457 65.25 213.754
 65.559 214.355 c 65.867 214.957 66.02 215.855 66.02 217.055 c 66.02 218.258
 65.867 219.16 65.559 219.758 c 65.25 220.359 64.793 220.656 64.18 220.656
 c 64.18 221.594 m 65.16 221.594 65.91 221.207 66.426 220.43 c 66.945 219.656
 67.203 218.531 67.203 217.055 c 67.203 215.582 66.945 214.457 66.426 213.68
 c 65.91 212.906 65.16 212.52 64.18 212.52 c 63.199 212.52 62.449 212.906
 61.934 213.68 c 61.414 214.457 61.156 215.582 61.156 217.055 c 61.156 218.531
 61.414 219.656 61.934 220.43 c 62.449 221.207 63.199 221.594 64.18 221.594
 c f
72 259.199 m 76 259.199 l S
518.398 259.199 m 514.398 259.199 l S
38.754 264.637 m 43.402 264.637 l 43.402 263.641 l 39.84 263.641 l 39.84
 261.496 l 40.012 261.555 40.184 261.598 40.352 261.629 c 40.527 261.656
 40.699 261.672 40.871 261.672 c 41.848 261.672 42.621 261.402 43.191 260.867
 c 43.762 260.332 44.047 259.609 44.047 258.695 c 44.047 257.754 43.754 
257.023 43.168 256.5 c 42.582 255.98 41.754 255.719 40.688 255.719 c 40.32
 255.719 39.945 255.75 39.566 255.812 c 39.188 255.875 38.793 255.969 38.387
 256.094 c 38.387 257.285 l 38.738 257.094 39.102 256.949 39.477 256.855
 c 39.852 256.762 40.246 256.715 40.664 256.715 c 41.34 256.715 41.875 256.895
 42.27 257.25 c 42.664 257.602 42.863 258.086 42.863 258.695 c 42.863 259.305
 42.664 259.785 42.27 260.141 c 41.875 260.496 41.34 260.676 40.664 260.676
 c 40.348 260.676 40.031 260.641 39.719 260.57 c 39.402 260.5 39.082 260.391
 38.754 260.242 c h
38.754 264.637 m f
48.91 263.859 m 48.301 263.859 47.84 263.559 47.535 262.957 c 47.227 262.359
 47.074 261.457 47.074 260.254 c 47.074 259.055 47.227 258.156 47.535 257.555
 c 47.84 256.957 48.301 256.656 48.91 256.656 c 49.523 256.656 49.98 256.957
 50.289 257.555 c 50.598 258.156 50.75 259.055 50.75 260.254 c 50.75 261.457
 50.598 262.359 50.289 262.957 c 49.98 263.559 49.523 263.859 48.91 263.859
 c 48.91 264.797 m 49.891 264.797 50.641 264.406 51.156 263.629 c 51.676
 262.855 51.934 261.73 51.934 260.254 c 51.934 258.781 51.676 257.656 51.156
 256.879 c 50.641 256.105 49.891 255.719 48.91 255.719 c 47.93 255.719 47.18
 256.105 46.664 256.879 c 46.145 257.656 45.887 258.781 45.887 260.254 c
 45.887 261.73 46.145 262.855 46.664 263.629 c 47.18 264.406 47.93 264.797
 48.91 264.797 c f
56.543 263.859 m 55.934 263.859 55.477 263.559 55.168 262.957 c 54.863 
262.359 54.711 261.457 54.711 260.254 c 54.711 259.055 54.863 258.156 55.168
 257.555 c 55.477 256.957 55.934 256.656 56.543 256.656 c 57.156 256.656
 57.617 256.957 57.922 257.555 c 58.23 258.156 58.383 259.055 58.383 260.254
 c 58.383 261.457 58.23 262.359 57.922 262.957 c 57.617 263.559 57.156 263.859
 56.543 263.859 c 56.543 264.797 m 57.523 264.797 58.273 264.406 58.793 
263.629 c 59.309 262.855 59.566 261.73 59.566 260.254 c 59.566 258.781 59.309
 257.656 58.793 256.879 c 58.273 256.105 57.523 255.719 56.543 255.719 c
 55.562 255.719 54.816 256.105 54.297 256.879 c 53.781 257.656 53.52 258.781
 53.52 260.254 c 53.52 261.73 53.781 262.855 54.297 263.629 c 54.816 264.406
 55.562 264.797 56.543 264.797 c f
64.18 263.859 m 63.57 263.859 63.109 263.559 62.805 262.957 c 62.496 262.359
 62.344 261.457 62.344 260.254 c 62.344 259.055 62.496 258.156 62.805 257.555
 c 63.109 256.957 63.57 256.656 64.18 256.656 c 64.793 256.656 65.25 256.957
 65.559 257.555 c 65.867 258.156 66.02 259.055 66.02 260.254 c 66.02 261.457
 65.867 262.359 65.559 262.957 c 65.25 263.559 64.793 263.859 64.18 263.859
 c 64.18 264.797 m 65.16 264.797 65.91 264.406 66.426 263.629 c 66.945 262.855
 67.203 261.73 67.203 260.254 c 67.203 258.781 66.945 257.656 66.426 256.879
 c 65.91 256.105 65.16 255.719 64.18 255.719 c 63.199 255.719 62.449 256.105
 61.934 256.879 c 61.414 257.656 61.156 258.781 61.156 260.254 c 61.156 
261.73 61.414 262.855 61.934 263.629 c 62.449 264.406 63.199 264.797 64.18
 264.797 c f
72 302.398 m 76 302.398 l S
518.398 302.398 m 514.398 302.398 l S
41.422 303.934 m 40.891 303.934 40.469 303.75 40.156 303.387 c 39.848 303.027
 39.691 302.527 39.691 301.895 c 39.691 301.266 39.848 300.77 40.156 300.402
 c 40.469 300.039 40.891 299.855 41.422 299.855 c 41.953 299.855 42.375 
300.039 42.684 300.402 c 42.992 300.77 43.148 301.266 43.148 301.895 c 43.148
 302.527 42.992 303.027 42.684 303.387 c 42.375 303.75 41.953 303.934 41.422
 303.934 c 43.77 307.645 m 43.77 306.566 l 43.473 306.707 43.172 306.812
 42.871 306.887 c 42.57 306.961 42.27 307 41.973 307 c 41.191 307 40.594
 306.734 40.18 306.207 c 39.77 305.68 39.535 304.883 39.477 303.816 c 39.707
 304.156 39.996 304.418 40.344 304.598 c 40.691 304.781 41.074 304.871 41.492
 304.871 c 42.371 304.871 43.062 304.605 43.574 304.07 c 44.086 303.539 
44.34 302.812 44.34 301.895 c 44.34 300.996 44.074 300.277 43.543 299.73
 c 43.012 299.188 42.305 298.918 41.422 298.918 c 40.41 298.918 39.637 299.305
 39.102 300.082 c 38.566 300.855 38.297 301.98 38.297 303.453 c 38.297 304.836
 38.625 305.938 39.281 306.762 c 39.938 307.582 40.82 307.996 41.926 307.996
 c 42.223 307.996 42.523 307.965 42.824 307.906 c 43.125 307.848 43.441 
307.762 43.77 307.645 c f
48.91 307.059 m 48.301 307.059 47.84 306.758 47.535 306.156 c 47.227 305.559
 47.074 304.656 47.074 303.453 c 47.074 302.254 47.227 301.355 47.535 300.754
 c 47.84 300.156 48.301 299.855 48.91 299.855 c 49.523 299.855 49.98 300.156
 50.289 300.754 c 50.598 301.355 50.75 302.254 50.75 303.453 c 50.75 304.656
 50.598 305.559 50.289 306.156 c 49.98 306.758 49.523 307.059 48.91 307.059
 c 48.91 307.996 m 49.891 307.996 50.641 307.605 51.156 306.832 c 51.676
 306.055 51.934 304.93 51.934 303.453 c 51.934 301.98 51.676 300.855 51.156
 300.082 c 50.641 299.305 49.891 298.918 48.91 298.918 c 47.93 298.918 47.18
 299.305 46.664 300.082 c 46.145 300.855 45.887 301.98 45.887 303.453 c 
45.887 304.93 46.145 306.055 46.664 306.832 c 47.18 307.605 47.93 307.996
 48.91 307.996 c f
56.543 307.059 m 55.934 307.059 55.477 306.758 55.168 306.156 c 54.863 
305.559 54.711 304.656 54.711 303.453 c 54.711 302.254 54.863 301.355 55.168
 300.754 c 55.477 300.156 55.934 299.855 56.543 299.855 c 57.156 299.855
 57.617 300.156 57.922 300.754 c 58.23 301.355 58.383 302.254 58.383 303.453
 c 58.383 304.656 58.23 305.559 57.922 306.156 c 57.617 306.758 57.156 307.059
 56.543 307.059 c 56.543 307.996 m 57.523 307.996 58.273 307.605 58.793 
306.832 c 59.309 306.055 59.566 304.93 59.566 303.453 c 59.566 301.98 59.309
 300.855 58.793 300.082 c 58.273 299.305 57.523 298.918 56.543 298.918 c
 55.562 298.918 54.816 299.305 54.297 300.082 c 53.781 300.855 53.52 301.98
 53.52 303.453 c 53.52 304.93 53.781 306.055 54.297 306.832 c 54.816 307.605
 55.562 307.996 56.543 307.996 c f
64.18 307.059 m 63.57 307.059 63.109 306.758 62.805 306.156 c 62.496 305.559
 62.344 304.656 62.344 303.453 c 62.344 302.254 62.496 301.355 62.805 300.754
 c 63.109 300.156 63.57 299.855 64.18 299.855 c 64.793 299.855 65.25 300.156
 65.559 300.754 c 65.867 301.355 66.02 302.254 66.02 303.453 c 66.02 304.656
 65.867 305.559 65.559 306.156 c 65.25 306.758 64.793 307.059 64.18 307.059
 c 64.18 307.996 m 65.16 307.996 65.91 307.605 66.426 306.832 c 66.945 306.055
 67.203 304.93 67.203 303.453 c 67.203 301.98 66.945 300.855 66.426 300.082
 c 65.91 299.305 65.16 298.918 64.18 298.918 c 63.199 298.918 62.449 299.305
 61.934 300.082 c 61.414 300.855 61.156 301.98 61.156 303.453 c 61.156 304.93
 61.414 306.055 61.934 306.832 c 62.449 307.605 63.199 307.996 64.18 307.996
 c f
72 345.602 m 76 345.602 l S
518.398 345.602 m 514.398 345.602 l S
38.445 351.039 m 44.07 351.039 l 44.07 350.531 l 40.895 342.289 l 39.656
 342.289 l 42.645 350.039 l 38.445 350.039 l h
38.445 351.039 m f
48.91 350.258 m 48.301 350.258 47.84 349.957 47.535 349.359 c 47.227 348.758
 47.074 347.859 47.074 346.652 c 47.074 345.453 47.227 344.555 47.535 343.957
 c 47.84 343.355 48.301 343.055 48.91 343.055 c 49.523 343.055 49.98 343.355
 50.289 343.957 c 50.598 344.555 50.75 345.453 50.75 346.652 c 50.75 347.859
 50.598 348.758 50.289 349.359 c 49.98 349.957 49.523 350.258 48.91 350.258
 c 48.91 351.195 m 49.891 351.195 50.641 350.809 51.156 350.031 c 51.676
 349.254 51.934 348.129 51.934 346.652 c 51.934 345.18 51.676 344.059 51.156
 343.281 c 50.641 342.504 49.891 342.117 48.91 342.117 c 47.93 342.117 47.18
 342.504 46.664 343.281 c 46.145 344.059 45.887 345.18 45.887 346.652 c 
45.887 348.129 46.145 349.254 46.664 350.031 c 47.18 350.809 47.93 351.195
 48.91 351.195 c f
56.543 350.258 m 55.934 350.258 55.477 349.957 55.168 349.359 c 54.863 
348.758 54.711 347.859 54.711 346.652 c 54.711 345.453 54.863 344.555 55.168
 343.957 c 55.477 343.355 55.934 343.055 56.543 343.055 c 57.156 343.055
 57.617 343.355 57.922 343.957 c 58.23 344.555 58.383 345.453 58.383 346.652
 c 58.383 347.859 58.23 348.758 57.922 349.359 c 57.617 349.957 57.156 350.258
 56.543 350.258 c 56.543 351.195 m 57.523 351.195 58.273 350.809 58.793 
350.031 c 59.309 349.254 59.566 348.129 59.566 346.652 c 59.566 345.18 59.309
 344.059 58.793 343.281 c 58.273 342.504 57.523 342.117 56.543 342.117 c
 55.562 342.117 54.816 342.504 54.297 343.281 c 53.781 344.059 53.52 345.18
 53.52 346.652 c 53.52 348.129 53.781 349.254 54.297 350.031 c 54.816 350.809
 55.562 351.195 56.543 351.195 c f
64.18 350.258 m 63.57 350.258 63.109 349.957 62.805 349.359 c 62.496 348.758
 62.344 347.859 62.344 346.652 c 62.344 345.453 62.496 344.555 62.805 343.957
 c 63.109 343.355 63.57 343.055 64.18 343.055 c 64.793 343.055 65.25 343.355
 65.559 343.957 c 65.867 344.555 66.02 345.453 66.02 346.652 c 66.02 347.859
 65.867 348.758 65.559 349.359 c 65.25 349.957 64.793 350.258 64.18 350.258
 c 64.18 351.195 m 65.16 351.195 65.91 350.809 66.426 350.031 c 66.945 349.254
 67.203 348.129 67.203 346.652 c 67.203 345.18 66.945 344.059 66.426 343.281
 c 65.91 342.504 65.16 342.117 64.18 342.117 c 63.199 342.117 62.449 342.504
 61.934 343.281 c 61.414 344.059 61.156 345.18 61.156 346.652 c 61.156 348.129
 61.414 349.254 61.934 350.031 c 62.449 350.809 63.199 351.195 64.18 351.195
 c f
72 388.801 m 76 388.801 l S
518.398 388.801 m 514.398 388.801 l S
41.273 389.645 m 40.711 389.645 40.27 389.492 39.945 389.191 c 39.625 388.891
 39.465 388.477 39.465 387.949 c 39.465 387.422 39.625 387.008 39.945 386.707
 c 40.27 386.406 40.711 386.254 41.273 386.254 c 41.836 386.254 42.281 386.406
 42.602 386.711 c 42.93 387.012 43.09 387.426 43.09 387.949 c 43.09 388.477
 42.93 388.891 42.605 389.191 c 42.285 389.492 41.84 389.645 41.273 389.645
 c 40.09 390.145 m 39.582 390.27 39.188 390.508 38.902 390.855 c 38.621 
391.203 38.48 391.629 38.48 392.129 c 38.48 392.828 38.73 393.379 39.227
 393.785 c 39.727 394.191 40.406 394.395 41.273 394.395 c 42.145 394.395
 42.828 394.191 43.324 393.785 c 43.82 393.379 44.07 392.828 44.07 392.129
 c 44.07 391.629 43.926 391.203 43.645 390.855 c 43.359 390.508 42.969 390.27
 42.465 390.145 c 43.035 390.016 43.477 389.754 43.797 389.367 c 44.113 
388.98 44.273 388.508 44.273 387.949 c 44.273 387.102 44.016 386.449 43.496
 385.996 c 42.98 385.543 42.238 385.316 41.273 385.316 c 40.309 385.316 
39.57 385.543 39.051 385.996 c 38.531 386.449 38.273 387.102 38.273 387.949
 c 38.273 388.508 38.434 388.98 38.754 389.367 c 39.074 389.754 39.52 390.016
 40.09 390.145 c 39.656 392.016 m 39.656 391.562 39.797 391.211 40.082 390.957
 c 40.363 390.703 40.762 390.574 41.273 390.574 c 41.781 390.574 42.18 390.703
 42.465 390.957 c 42.754 391.211 42.898 391.562 42.898 392.016 c 42.898 
392.469 42.754 392.824 42.465 393.078 c 42.18 393.332 41.781 393.457 41.273
 393.457 c 40.762 393.457 40.363 393.332 40.082 393.078 c 39.797 392.824
 39.656 392.469 39.656 392.016 c f
48.91 393.457 m 48.301 393.457 47.84 393.156 47.535 392.559 c 47.227 391.957
 47.074 391.059 47.074 389.855 c 47.074 388.656 47.227 387.754 47.535 387.156
 c 47.84 386.555 48.301 386.254 48.91 386.254 c 49.523 386.254 49.98 386.555
 50.289 387.156 c 50.598 387.754 50.75 388.656 50.75 389.855 c 50.75 391.059
 50.598 391.957 50.289 392.559 c 49.98 393.156 49.523 393.457 48.91 393.457
 c 48.91 394.395 m 49.891 394.395 50.641 394.008 51.156 393.23 c 51.676 
392.457 51.934 391.328 51.934 389.855 c 51.934 388.383 51.676 387.258 51.156
 386.48 c 50.641 385.707 49.891 385.316 48.91 385.316 c 47.93 385.316 47.18
 385.707 46.664 386.48 c 46.145 387.258 45.887 388.383 45.887 389.855 c 
45.887 391.328 46.145 392.457 46.664 393.23 c 47.18 394.008 47.93 394.395
 48.91 394.395 c f
56.543 393.457 m 55.934 393.457 55.477 393.156 55.168 392.559 c 54.863 
391.957 54.711 391.059 54.711 389.855 c 54.711 388.656 54.863 387.754 55.168
 387.156 c 55.477 386.555 55.934 386.254 56.543 386.254 c 57.156 386.254
 57.617 386.555 57.922 387.156 c 58.23 387.754 58.383 388.656 58.383 389.855
 c 58.383 391.059 58.23 391.957 57.922 392.559 c 57.617 393.156 57.156 393.457
 56.543 393.457 c 56.543 394.395 m 57.523 394.395 58.273 394.008 58.793 
393.23 c 59.309 392.457 59.566 391.328 59.566 389.855 c 59.566 388.383 59.309
 387.258 58.793 386.48 c 58.273 385.707 57.523 385.316 56.543 385.316 c 
55.562 385.316 54.816 385.707 54.297 386.48 c 53.781 387.258 53.52 388.383
 53.52 389.855 c 53.52 391.328 53.781 392.457 54.297 393.23 c 54.816 394.008
 55.562 394.395 56.543 394.395 c f
64.18 393.457 m 63.57 393.457 63.109 393.156 62.805 392.559 c 62.496 391.957
 62.344 391.059 62.344 389.855 c 62.344 388.656 62.496 387.754 62.805 387.156
 c 63.109 386.555 63.57 386.254 64.18 386.254 c 64.793 386.254 65.25 386.555
 65.559 387.156 c 65.867 387.754 66.02 388.656 66.02 389.855 c 66.02 391.059
 65.867 391.957 65.559 392.559 c 65.25 393.156 64.793 393.457 64.18 393.457
 c 64.18 394.395 m 65.16 394.395 65.91 394.008 66.426 393.23 c 66.945 392.457
 67.203 391.328 67.203 389.855 c 67.203 388.383 66.945 387.258 66.426 386.48
 c 65.91 385.707 65.16 385.316 64.18 385.316 c 63.199 385.316 62.449 385.707
 61.934 386.48 c 61.414 387.258 61.156 388.383 61.156 389.855 c 61.156 391.328
 61.414 392.457 61.934 393.23 c 62.449 394.008 63.199 394.395 64.18 394.395
 c f
22.188 156.629 m 25.477 156.629 l 25.477 158.117 l 25.477 158.668 25.332
 159.094 25.047 159.395 c 24.762 159.695 24.355 159.848 23.828 159.848 c
 23.305 159.848 22.902 159.695 22.617 159.395 c 22.332 159.094 22.188 158.668
 22.188 158.117 c h
21.215 155.445 m 21.215 158.117 l 21.215 159.098 21.438 159.84 21.883 160.34
 c 22.324 160.844 22.973 161.094 23.828 161.094 c 24.691 161.094 25.344 
160.844 25.785 160.34 c 26.227 159.84 26.449 159.098 26.449 158.117 c 26.449
 156.629 l 29.965 156.629 l 29.965 155.445 l h
21.215 155.445 m f
21.215 161.902 m 21.215 163.098 l 28.609 164.938 l 21.215 166.773 l 21.215
 168.102 l 28.609 169.941 l 21.215 171.777 l 21.215 172.977 l 29.965 170.781
 l 29.965 169.293 l 22.371 167.445 l 29.965 165.582 l 29.965 164.094 l h
21.215 161.902 m f
21.215 174.547 m 21.215 176.312 l 27.168 178.543 l 21.215 180.789 l 21.215
 182.551 l 29.965 182.551 l 29.965 181.398 l 22.281 181.398 l 28.281 179.141
 l 28.281 177.953 l 22.281 175.695 l 29.965 175.695 l 29.965 174.547 l h
21.215 174.547 m f
21.215 188.715 m 21.215 193.742 l 22.215 193.742 l 22.215 189.898 l 24.793
 189.898 l 24.793 193.367 l 25.785 193.367 l 25.785 189.898 l 29.965 189.898
 l 29.965 188.715 l h
21.215 188.715 m f
24.41 199.359 m 24.34 199.238 24.289 199.105 24.254 198.965 c 24.223 198.82
 24.203 198.664 24.203 198.492 c 24.203 197.883 24.402 197.414 24.797 197.09
 c 25.195 196.762 25.766 196.602 26.508 196.602 c 29.965 196.602 l 29.965
 195.516 l 23.402 195.516 l 23.402 196.602 l 24.422 196.602 l 24.023 196.828
 23.727 197.121 23.535 197.484 c 23.34 197.848 23.246 198.289 23.246 198.812
 c 23.246 198.883 23.25 198.965 23.258 199.055 c 23.27 199.148 23.281 199.246
 23.301 199.355 c h
24.41 199.359 m f
26.414 206.102 m 26.941 206.102 l 26.941 201.145 l 27.684 201.191 28.25
 201.414 28.637 201.816 c 29.027 202.215 29.219 202.773 29.219 203.488 c
 29.219 203.902 29.168 204.301 29.066 204.691 c 28.969 205.082 28.812 205.465
 28.609 205.852 c 29.629 205.852 l 29.793 205.461 29.918 205.066 30.004 
204.66 c 30.094 204.254 30.137 203.84 30.137 203.426 c 30.137 202.375 29.832
 201.547 29.223 200.938 c 28.613 200.324 27.785 200.02 26.746 200.02 c 25.672
 200.02 24.82 200.309 24.191 200.891 c 23.559 201.469 23.246 202.25 23.246
 203.238 c 23.246 204.117 23.527 204.816 24.098 205.332 c 24.664 205.844
 25.438 206.102 26.414 206.102 c 26.098 205.023 m 25.508 205.016 25.039 
204.852 24.688 204.527 c 24.332 204.207 24.156 203.777 24.156 203.246 c 
24.156 202.645 24.328 202.164 24.668 201.805 c 25.008 201.441 25.484 201.234
 26.105 201.18 c h
26.098 205.023 m f
26.688 208.516 m 27.48 208.516 28.102 208.68 28.555 209.004 c 29.004 209.332
 29.23 209.777 29.23 210.348 c 29.23 210.918 29.004 211.367 28.555 211.695
 c 28.102 212.023 27.48 212.188 26.688 212.188 c 25.895 212.188 25.273 212.023
 24.824 211.695 c 24.371 211.367 24.145 210.918 24.145 210.348 c 24.145 
209.777 24.371 209.332 24.824 209.004 c 25.273 208.68 25.895 208.516 26.688
 208.516 c 28.98 212.188 m 29.371 211.961 29.66 211.676 29.852 211.328 c
 30.039 210.984 30.137 210.57 30.137 210.086 c 30.137 209.293 29.82 208.648
 29.188 208.148 c 28.551 207.652 27.719 207.402 26.688 207.402 c 25.656 
207.402 24.824 207.652 24.191 208.148 c 23.562 208.648 23.246 209.293 23.246
 210.086 c 23.246 210.57 23.34 210.984 23.531 211.328 c 23.719 211.676 24.008
 211.961 24.398 212.188 c 23.402 212.188 l 23.402 213.266 l 32.461 213.266
 l 32.461 212.188 l h
28.98 212.188 m f
27.375 215.379 m 23.402 215.379 l 23.402 216.457 l 27.332 216.457 l 27.953
 216.457 28.422 216.574 28.734 216.816 c 29.043 217.059 29.199 217.422 29.199
 217.91 c 29.199 218.488 29.012 218.949 28.641 219.285 c 28.27 219.625 27.762
 219.793 27.121 219.793 c 23.402 219.793 l 23.402 220.871 l 29.965 220.871
 l 29.965 219.793 l 28.957 219.793 l 29.355 219.535 29.652 219.23 29.844
 218.883 c 30.039 218.539 30.137 218.137 30.137 217.68 c 30.137 216.926 
29.902 216.352 29.434 215.961 c 28.965 215.57 28.277 215.379 27.375 215.379
 c f
26.414 228.707 m 26.941 228.707 l 26.941 223.75 l 27.684 223.797 28.25 
224.02 28.637 224.422 c 29.027 224.82 29.219 225.379 29.219 226.094 c 29.219
 226.508 29.168 226.906 29.066 227.297 c 28.969 227.688 28.812 228.07 28.609
 228.457 c 29.629 228.457 l 29.793 228.066 29.918 227.672 30.004 227.266
 c 30.094 226.859 30.137 226.445 30.137 226.031 c 30.137 224.98 29.832 224.152
 29.223 223.543 c 28.613 222.93 27.785 222.625 26.746 222.625 c 25.672 222.625
 24.82 222.914 24.191 223.496 c 23.559 224.074 23.246 224.855 23.246 225.844
 c 23.246 226.723 23.527 227.422 24.098 227.938 c 24.664 228.449 25.438 
228.707 26.414 228.707 c 26.098 227.629 m 25.508 227.621 25.039 227.457 
24.688 227.133 c 24.332 226.812 24.156 226.383 24.156 225.852 c 24.156 225.25
 24.328 224.77 24.668 224.41 c 25.008 224.047 25.484 223.84 26.105 223.785
 c h
26.098 227.629 m f
26.004 235.934 m 29.965 235.934 l 29.965 234.855 l 26.039 234.855 l 25.418
 234.855 24.953 234.734 24.645 234.492 c 24.336 234.246 24.184 233.883 24.184
 233.402 c 24.184 232.82 24.367 232.359 24.738 232.023 c 25.109 231.688 
25.613 231.52 26.254 231.52 c 29.965 231.52 l 29.965 230.434 l 23.402 230.434
 l 23.402 231.52 l 24.422 231.52 l 24.027 231.777 23.73 232.082 23.535 232.43
 c 23.344 232.781 23.246 233.184 23.246 233.641 c 23.246 234.395 23.477 
234.965 23.945 235.352 c 24.41 235.738 25.098 235.934 26.004 235.934 c f
23.652 242.805 m 24.66 242.805 l 24.492 242.5 24.367 242.195 24.281 241.887
 c 24.199 241.582 24.156 241.273 24.156 240.961 c 24.156 240.258 24.379 
239.715 24.824 239.328 c 25.266 238.941 25.887 238.75 26.688 238.75 c 27.488
 238.75 28.113 238.941 28.555 239.328 c 29 239.715 29.219 240.258 29.219
 240.961 c 29.219 241.273 29.18 241.582 29.094 241.887 c 29.012 242.195 
28.883 242.5 28.715 242.805 c 29.715 242.805 l 29.852 242.504 29.957 242.191
 30.027 241.867 c 30.098 241.547 30.137 241.207 30.137 240.84 c 30.137 239.852
 29.824 239.066 29.203 238.484 c 28.582 237.902 27.742 237.613 26.688 237.613
 c 25.617 237.613 24.777 237.906 24.164 238.492 c 23.551 239.082 23.246 
239.891 23.246 240.914 c 23.246 241.242 23.277 241.566 23.348 241.883 c 
23.414 242.199 23.516 242.508 23.652 242.805 c f
30.574 247.41 m 31.355 247.105 31.863 246.809 32.102 246.52 c 32.34 246.23
 32.461 245.844 32.461 245.359 c 32.461 244.496 l 31.559 244.496 l 31.559
 245.133 l 31.559 245.426 31.488 245.656 31.348 245.82 c 31.207 245.984 
30.875 246.168 30.352 246.367 c 29.859 246.559 l 23.402 243.906 l 23.402
 245.047 l 28.535 247.102 l 23.402 249.152 l 23.402 250.293 l h
30.574 247.41 m f
20.848 255.496 m 20.848 257.98 l 21.684 257.98 l 21.684 256.574 l 30.707
 256.574 l 30.707 257.98 l 31.547 257.98 l 31.547 255.496 l h
20.848 255.496 m f
26.004 265.734 m 29.965 265.734 l 29.965 264.656 l 26.039 264.656 l 25.418
 264.656 24.953 264.535 24.645 264.293 c 24.336 264.047 24.184 263.684 24.184
 263.203 c 24.184 262.621 24.367 262.16 24.738 261.824 c 25.109 261.488 
25.613 261.32 26.254 261.32 c 29.965 261.32 l 29.965 260.234 l 20.848 260.234
 l 20.848 261.32 l 24.422 261.32 l 24.027 261.578 23.73 261.883 23.535 262.23
 c 23.344 262.582 23.246 262.984 23.246 263.441 c 23.246 264.195 23.477 
264.766 23.945 265.152 c 24.41 265.539 25.098 265.734 26.004 265.734 c f
23.402 267.414 m 23.402 272.535 l 24.387 272.535 l 29.105 268.48 l 29.105
 272.535 l 29.965 272.535 l 29.965 267.266 l 28.98 267.266 l 24.262 271.324
 l 24.262 267.414 l h
23.402 267.414 m f
20.848 276.699 m 31.547 276.699 l 31.547 274.215 l 30.707 274.215 l 30.707
 275.617 l 21.684 275.617 l 21.684 274.215 l 20.848 274.215 l h
20.848 276.699 m f
172.672 398.723 m 172.977 398.621 173.273 398.398 173.559 398.062 c 173.848
 397.723 174.137 397.258 174.43 396.668 c 175.871 393.801 l 174.344 393.801
 l 173.004 396.492 l 172.656 397.195 172.316 397.664 171.992 397.895 c 171.668
 398.121 171.223 398.238 170.66 398.238 c 169.113 398.238 l 169.113 393.801
 l 167.691 393.801 l 167.691 404.297 l 170.898 404.297 l 172.098 404.297
 172.996 404.047 173.586 403.543 c 174.176 403.043 174.473 402.285 174.473
 401.273 c 174.473 400.613 174.316 400.062 174.012 399.629 c 173.703 399.191
 173.258 398.891 172.672 398.723 c 169.113 403.129 m 169.113 399.406 l 170.898
 399.406 l 171.582 399.406 172.098 399.562 172.449 399.879 c 172.797 400.195
 172.973 400.66 172.973 401.273 c 172.973 401.887 172.797 402.352 172.449
 402.664 c 172.098 402.977 171.582 403.129 170.898 403.129 c h
169.113 403.129 m f
181.219 397.758 m 180.172 397.758 179.445 397.637 179.043 397.398 c 178.641
 397.16 178.438 396.754 178.438 396.176 c 178.438 395.719 178.59 395.352
 178.895 395.082 c 179.195 394.812 179.605 394.68 180.125 394.68 c 180.844
 394.68 181.422 394.934 181.855 395.441 c 182.289 395.949 182.504 396.625
 182.504 397.469 c 182.504 397.758 l h
183.797 398.293 m 183.797 393.801 l 182.504 393.801 l 182.504 394.996 l
 182.207 394.52 181.84 394.164 181.398 393.938 c 180.957 393.711 180.418
 393.594 179.781 393.594 c 178.977 393.594 178.336 393.82 177.859 394.273
 c 177.383 394.727 177.145 395.332 177.145 396.094 c 177.145 396.977 177.441
 397.645 178.035 398.094 c 178.629 398.547 179.512 398.77 180.688 398.77
 c 182.504 398.77 l 182.504 398.898 l 182.504 399.492 182.309 399.953 181.918
 400.281 c 181.523 400.605 180.977 400.77 180.266 400.77 c 179.816 400.77
 179.379 400.715 178.953 400.605 c 178.523 400.5 178.117 400.336 177.723
 400.121 c 177.723 401.316 l 178.195 401.5 178.652 401.637 179.102 401.727
 c 179.547 401.816 179.98 401.863 180.398 401.863 c 181.539 401.863 182.391
 401.57 182.953 400.977 c 183.516 400.387 183.797 399.492 183.797 398.293
 c f
192.594 400.164 m 192.918 400.746 193.305 401.176 193.754 401.449 c 194.203
 401.727 194.734 401.863 195.344 401.863 c 196.164 401.863 196.797 401.578
 197.242 401.004 c 197.688 400.43 197.91 399.613 197.91 398.555 c 197.91
 393.801 l 196.609 393.801 l 196.609 398.512 l 196.609 399.266 196.477 399.824
 196.207 400.191 c 195.938 400.555 195.531 400.738 194.984 400.738 c 194.312
 400.738 193.785 400.516 193.395 400.07 c 193.004 399.625 192.812 399.02
 192.812 398.25 c 192.812 393.801 l 191.512 393.801 l 191.512 398.512 l 
191.512 399.27 191.375 399.832 191.109 400.195 c 190.844 400.559 190.43 
400.738 189.871 400.738 c 189.211 400.738 188.684 400.516 188.297 400.07
 c 187.906 399.621 187.711 399.016 187.711 398.25 c 187.711 393.801 l 186.41
 393.801 l 186.41 401.676 l 187.711 401.676 l 187.711 400.449 l 188.008 
400.934 188.363 401.289 188.773 401.52 c 189.188 401.75 189.676 401.863 
190.242 401.863 c 190.816 401.863 191.305 401.719 191.703 401.426 c 192.105
 401.137 192.402 400.715 192.594 400.164 c f
201.738 394.98 m 201.738 390.805 l 200.438 390.805 l 200.438 401.676 l 
201.738 401.676 l 201.738 400.48 l 202.012 400.949 202.355 401.297 202.77
 401.523 c 203.188 401.75 203.68 401.863 204.258 401.863 c 205.215 401.863
 205.992 401.484 206.59 400.727 c 207.188 399.965 207.484 398.969 207.484
 397.73 c 207.484 396.492 207.188 395.496 206.59 394.734 c 205.992 393.977
 205.215 393.594 204.258 393.594 c 203.68 393.594 203.188 393.711 202.77
 393.938 c 202.355 394.164 202.012 394.512 201.738 394.98 c 206.145 397.73
 m 206.145 398.684 205.949 399.43 205.555 399.969 c 205.164 400.512 204.625
 400.781 203.941 400.781 c 203.258 400.781 202.719 400.512 202.328 399.969
 c 201.934 399.43 201.738 398.684 201.738 397.73 c 201.738 396.781 201.934
 396.035 202.328 395.492 c 202.719 394.949 203.258 394.68 203.941 394.68
 c 204.625 394.68 205.164 394.949 205.555 395.492 c 205.949 396.035 206.145
 396.781 206.145 397.73 c f
217.785 397.758 m 216.742 397.758 216.016 397.637 215.613 397.398 c 215.211
 397.16 215.008 396.754 215.008 396.176 c 215.008 395.719 215.16 395.352
 215.461 395.082 c 215.766 394.812 216.176 394.68 216.695 394.68 c 217.414
 394.68 217.988 394.934 218.422 395.441 c 218.855 395.949 219.074 396.625
 219.074 397.469 c 219.074 397.758 l h
220.367 398.293 m 220.367 393.801 l 219.074 393.801 l 219.074 394.996 l
 218.777 394.52 218.41 394.164 217.969 393.938 c 217.527 393.711 216.988
 393.594 216.352 393.594 c 215.547 393.594 214.902 393.82 214.426 394.273
 c 213.953 394.727 213.715 395.332 213.715 396.094 c 213.715 396.977 214.012
 397.645 214.602 398.094 c 215.195 398.547 216.082 398.77 217.258 398.77
 c 219.074 398.77 l 219.074 398.898 l 219.074 399.492 218.879 399.953 218.484
 400.281 c 218.094 400.605 217.547 400.77 216.836 400.77 c 216.387 400.77
 215.949 400.715 215.52 400.605 c 215.094 400.5 214.684 400.336 214.293 
400.121 c 214.293 401.316 l 214.766 401.5 215.223 401.637 215.668 401.727
 c 216.113 401.816 216.547 401.863 216.969 401.863 c 218.109 401.863 218.961
 401.57 219.523 400.977 c 220.086 400.387 220.367 399.492 220.367 398.293
 c f
224.281 394.98 m 224.281 390.805 l 222.98 390.805 l 222.98 401.676 l 224.281
 401.676 l 224.281 400.48 l 224.555 400.949 224.898 401.297 225.312 401.523
 c 225.727 401.75 226.223 401.863 226.801 401.863 c 227.758 401.863 228.535
 401.484 229.129 400.727 c 229.73 399.965 230.027 398.969 230.027 397.73
 c 230.027 396.492 229.73 395.496 229.129 394.734 c 228.535 393.977 227.758
 393.594 226.801 393.594 c 226.223 393.594 225.727 393.711 225.312 393.938
 c 224.898 394.164 224.555 394.512 224.281 394.98 c 228.684 397.73 m 228.684
 398.684 228.488 399.43 228.098 399.969 c 227.707 400.512 227.168 400.781
 226.484 400.781 c 225.801 400.781 225.262 400.512 224.871 399.969 c 224.477
 399.43 224.281 398.684 224.281 397.73 c 224.281 396.781 224.477 396.035
 224.871 395.492 c 225.262 394.949 225.801 394.68 226.484 394.68 c 227.168
 394.68 227.707 394.949 228.098 395.492 c 228.488 396.035 228.684 396.781
 228.684 397.73 c f
233.422 394.98 m 233.422 390.805 l 232.121 390.805 l 232.121 401.676 l 
233.422 401.676 l 233.422 400.48 l 233.695 400.949 234.039 401.297 234.453
 401.523 c 234.867 401.75 235.363 401.863 235.941 401.863 c 236.898 401.863
 237.676 401.484 238.27 400.727 c 238.871 399.965 239.168 398.969 239.168
 397.73 c 239.168 396.492 238.871 395.496 238.27 394.734 c 237.676 393.977
 236.898 393.594 235.941 393.594 c 235.363 393.594 234.867 393.711 234.453
 393.938 c 234.039 394.164 233.695 394.512 233.422 394.98 c 237.824 397.73
 m 237.824 398.684 237.629 399.43 237.238 399.969 c 236.848 400.512 236.309
 400.781 235.625 400.781 c 234.941 400.781 234.402 400.512 234.012 399.969
 c 233.617 399.43 233.422 398.684 233.422 397.73 c 233.422 396.781 233.617
 396.035 234.012 395.492 c 234.402 394.949 234.941 394.68 235.625 394.68
 c 236.309 394.68 236.848 394.949 237.238 395.492 c 237.629 396.035 237.824
 396.781 237.824 397.73 c f
241.312 404.742 1.293 -10.941 re f
245.312 401.676 m 246.605 401.676 l 246.605 393.801 l 245.312 393.801 l
 h
245.312 404.742 m 246.605 404.742 l 246.605 403.102 l 245.312 403.102 l
 h
245.312 404.742 m f
256.051 398.062 m 256.051 397.43 l 250.102 397.43 l 250.16 396.539 250.426
 395.859 250.906 395.395 c 251.387 394.926 252.055 394.691 252.914 394.691
 c 253.41 394.691 253.891 394.754 254.359 394.875 c 254.824 394.996 255.289
 395.18 255.75 395.426 c 255.75 394.199 l 255.285 394.004 254.809 393.855
 254.32 393.75 c 253.832 393.648 253.34 393.594 252.836 393.594 c 251.582
 393.594 250.586 393.961 249.852 394.691 c 249.117 395.422 248.75 396.414
 248.75 397.66 c 248.75 398.949 249.098 399.973 249.797 400.727 c 250.492
 401.484 251.43 401.863 252.613 401.863 c 253.672 401.863 254.508 401.523
 255.125 400.84 c 255.742 400.16 256.051 399.234 256.051 398.062 c 254.758
 398.441 m 254.746 399.148 254.551 399.711 254.164 400.133 c 253.777 400.559
 253.262 400.77 252.625 400.77 c 251.902 400.77 251.328 400.562 250.895 
400.156 c 250.461 399.75 250.211 399.172 250.145 398.434 c h
254.758 398.441 m f
263.355 400.48 m 263.355 404.742 l 264.648 404.742 l 264.648 393.801 l 
263.355 393.801 l 263.355 394.98 l 263.082 394.512 262.738 394.164 262.324
 393.938 c 261.91 393.711 261.414 393.594 260.832 393.594 c 259.879 393.594
 259.105 393.977 258.508 394.734 c 257.91 395.496 257.609 396.492 257.609
 397.73 c 257.609 398.969 257.91 399.965 258.508 400.727 c 259.105 401.484
 259.879 401.863 260.832 401.863 c 261.414 401.863 261.91 401.75 262.324
 401.523 c 262.738 401.297 263.082 400.949 263.355 400.48 c 258.945 397.73
 m 258.945 396.781 259.145 396.035 259.535 395.492 c 259.926 394.949 260.465
 394.68 261.148 394.68 c 261.832 394.68 262.371 394.949 262.762 395.492 
c 263.156 396.035 263.355 396.781 263.355 397.73 c 263.355 398.684 263.156
 399.43 262.762 399.969 c 262.371 400.512 261.832 400.781 261.148 400.781
 c 260.465 400.781 259.926 400.512 259.535 399.969 c 259.145 399.43 258.945
 398.684 258.945 397.73 c f
274.941 400.77 m 274.25 400.77 273.699 400.496 273.297 399.957 c 272.895
 399.414 272.691 398.672 272.691 397.73 c 272.691 396.789 272.891 396.047
 273.293 395.504 c 273.695 394.965 274.246 394.691 274.941 394.691 c 275.633
 394.691 276.18 394.965 276.582 395.508 c 276.984 396.051 277.184 396.793
 277.184 397.73 c 277.184 398.664 276.984 399.402 276.582 399.949 c 276.18
 400.496 275.633 400.77 274.941 400.77 c 274.941 401.863 m 276.066 401.863
 276.949 401.496 277.594 400.766 c 278.234 400.035 278.559 399.023 278.559
 397.73 c 278.559 396.441 278.234 395.43 277.594 394.695 c 276.949 393.961
 276.066 393.594 274.941 393.594 c 273.812 393.594 272.926 393.961 272.289
 394.695 c 271.648 395.43 271.328 396.441 271.328 397.73 c 271.328 399.023
 271.648 400.035 272.289 400.766 c 272.926 401.496 273.812 401.863 274.941
 401.863 c f
287.25 398.555 m 287.25 393.801 l 285.953 393.801 l 285.953 398.512 l 285.953
 399.258 285.809 399.812 285.52 400.184 c 285.227 400.555 284.793 400.738
 284.211 400.738 c 283.512 400.738 282.961 400.516 282.559 400.07 c 282.152
 399.625 281.953 399.02 281.953 398.25 c 281.953 393.801 l 280.652 393.801
 l 280.652 401.676 l 281.953 401.676 l 281.953 400.449 l 282.262 400.926
 282.629 401.277 283.047 401.512 c 283.465 401.746 283.949 401.863 284.5
 401.863 c 285.402 401.863 286.086 401.586 286.551 401.023 c 287.016 400.465
 287.25 399.641 287.25 398.555 c f
295.684 403.91 m 295.684 401.676 l 298.348 401.676 l 298.348 400.668 l 
295.684 400.668 l 295.684 396.395 l 295.684 395.754 295.773 395.34 295.949
 395.156 c 296.125 394.973 296.48 394.883 297.023 394.883 c 298.348 394.883
 l 298.348 393.801 l 297.023 393.801 l 296.023 393.801 295.332 393.984 294.953
 394.359 c 294.574 394.73 294.387 395.41 294.387 396.395 c 294.387 400.668
 l 293.434 400.668 l 293.434 401.676 l 294.387 401.676 l 294.387 403.91 
l h
295.684 403.91 m f
306.598 398.555 m 306.598 393.801 l 305.305 393.801 l 305.305 398.512 l
 305.305 399.258 305.16 399.812 304.867 400.184 c 304.578 400.555 304.141
 400.738 303.562 400.738 c 302.863 400.738 302.312 400.516 301.906 400.07
 c 301.504 399.625 301.301 399.02 301.301 398.25 c 301.301 393.801 l 300
 393.801 l 300 404.742 l 301.301 404.742 l 301.301 400.449 l 301.613 400.926
 301.977 401.277 302.395 401.512 c 302.816 401.746 303.301 401.863 303.848
 401.863 c 304.754 401.863 305.438 401.586 305.902 401.023 c 306.367 400.465
 306.598 399.641 306.598 398.555 c f
315.914 398.062 m 315.914 397.43 l 309.965 397.43 l 310.023 396.539 310.289
 395.859 310.77 395.395 c 311.25 394.926 311.918 394.691 312.777 394.691
 c 313.273 394.691 313.754 394.754 314.223 394.875 c 314.688 394.996 315.152
 395.18 315.613 395.426 c 315.613 394.199 l 315.148 394.004 314.672 393.855
 314.184 393.75 c 313.695 393.648 313.203 393.594 312.703 393.594 c 311.445
 393.594 310.449 393.961 309.715 394.691 c 308.98 395.422 308.617 396.414
 308.617 397.66 c 308.617 398.949 308.965 399.973 309.66 400.727 c 310.355
 401.484 311.293 401.863 312.477 401.863 c 313.535 401.863 314.375 401.523
 314.988 400.84 c 315.605 400.16 315.914 399.234 315.914 398.062 c 314.621
 398.441 m 314.613 399.148 314.414 399.711 314.027 400.133 c 313.641 400.559
 313.129 400.77 312.488 400.77 c 311.77 400.77 311.191 400.562 310.758 400.156
 c 310.324 399.75 310.074 399.172 310.008 398.434 c h
314.621 398.441 m f
327.633 401.441 m 327.633 400.219 l 327.27 400.406 326.891 400.547 326.496
 400.641 c 326.102 400.734 325.695 400.781 325.273 400.781 c 324.629 400.781
 324.148 400.684 323.828 400.488 c 323.508 400.289 323.348 399.996 323.348
 399.602 c 323.348 399.301 323.461 399.066 323.691 398.895 c 323.918 398.723
 324.383 398.559 325.074 398.406 c 325.52 398.309 l 326.438 398.109 327.09
 397.832 327.477 397.473 c 327.863 397.117 328.059 396.617 328.059 395.973
 c 328.059 395.242 327.77 394.66 327.188 394.234 c 326.609 393.809 325.812
 393.594 324.801 393.594 c 324.379 393.594 323.941 393.637 323.484 393.719
 c 323.027 393.801 322.543 393.926 322.039 394.09 c 322.039 395.426 l 322.516
 395.176 322.988 394.988 323.453 394.863 c 323.914 394.742 324.375 394.68
 324.832 394.68 c 325.441 394.68 325.906 394.785 326.234 394.992 c 326.562
 395.199 326.727 395.496 326.727 395.875 c 326.727 396.227 326.609 396.496
 326.371 396.684 c 326.137 396.871 325.617 397.051 324.816 397.223 c 324.363
 397.332 l 323.562 397.5 322.984 397.758 322.629 398.105 c 322.273 398.457
 322.094 398.934 322.094 399.543 c 322.094 400.285 322.355 400.855 322.883
 401.258 c 323.406 401.664 324.152 401.863 325.117 401.863 c 325.598 401.863
 326.047 401.828 326.465 401.758 c 326.891 401.688 327.277 401.586 327.633
 401.441 c f
331.398 403.91 m 331.398 401.676 l 334.062 401.676 l 334.062 400.668 l 
331.398 400.668 l 331.398 396.395 l 331.398 395.754 331.484 395.34 331.66
 395.156 c 331.836 394.973 332.195 394.883 332.734 394.883 c 334.062 394.883
 l 334.062 393.801 l 332.734 393.801 l 331.734 393.801 331.047 393.984 330.664
 394.359 c 330.285 394.73 330.098 395.41 330.098 396.395 c 330.098 400.668
 l 329.148 400.668 l 329.148 401.676 l 330.098 401.676 l 330.098 403.91 
l h
331.398 403.91 m f
342.5 398.062 m 342.5 397.43 l 336.551 397.43 l 336.609 396.539 336.875
 395.859 337.355 395.395 c 337.836 394.926 338.504 394.691 339.363 394.691
 c 339.859 394.691 340.34 394.754 340.809 394.875 c 341.273 394.996 341.738
 395.18 342.199 395.426 c 342.199 394.199 l 341.734 394.004 341.258 393.855
 340.77 393.75 c 340.281 393.648 339.789 393.594 339.285 393.594 c 338.031
 393.594 337.035 393.961 336.301 394.691 c 335.566 395.422 335.199 396.414
 335.199 397.66 c 335.199 398.949 335.547 399.973 336.246 400.727 c 336.941
 401.484 337.879 401.863 339.062 401.863 c 340.121 401.863 340.957 401.523
 341.574 400.84 c 342.191 400.16 342.5 399.234 342.5 398.062 c 341.207 398.441
 m 341.195 399.148 341 399.711 340.613 400.133 c 340.227 400.559 339.711
 400.77 339.074 400.77 c 338.352 400.77 337.777 400.562 337.344 400.156 
c 336.91 399.75 336.66 399.172 336.594 398.434 c h
341.207 398.441 m f
345.875 394.98 m 345.875 390.805 l 344.574 390.805 l 344.574 401.676 l 
345.875 401.676 l 345.875 400.48 l 346.145 400.949 346.488 401.297 346.902
 401.523 c 347.32 401.75 347.816 401.863 348.391 401.863 c 349.348 401.863
 350.125 401.484 350.723 400.727 c 351.32 399.965 351.621 398.969 351.621
 397.73 c 351.621 396.492 351.32 395.496 350.723 394.734 c 350.125 393.977
 349.348 393.594 348.391 393.594 c 347.816 393.594 347.32 393.711 346.902
 393.938 c 346.488 394.164 346.145 394.512 345.875 394.98 c 350.277 397.73
 m 350.277 398.684 350.082 399.43 349.688 399.969 c 349.297 400.512 348.762
 400.781 348.074 400.781 c 347.391 400.781 346.852 400.512 346.461 399.969
 c 346.07 399.43 345.875 398.684 345.875 397.73 c 345.875 396.781 346.07
 396.035 346.461 395.492 c 346.852 394.949 347.391 394.68 348.074 394.68
 c 348.762 394.68 349.297 394.949 349.688 395.492 c 350.082 396.035 350.277
 396.781 350.277 397.73 c f
355.016 394.98 m 355.016 390.805 l 353.715 390.805 l 353.715 401.676 l 
355.016 401.676 l 355.016 400.48 l 355.285 400.949 355.629 401.297 356.043
 401.523 c 356.461 401.75 356.957 401.863 357.531 401.863 c 358.488 401.863
 359.266 401.484 359.863 400.727 c 360.461 399.965 360.762 398.969 360.762
 397.73 c 360.762 396.492 360.461 395.496 359.863 394.734 c 359.266 393.977
 358.488 393.594 357.531 393.594 c 356.957 393.594 356.461 393.711 356.043
 393.938 c 355.629 394.164 355.285 394.512 355.016 394.98 c 359.418 397.73
 m 359.418 398.684 359.223 399.43 358.828 399.969 c 358.438 400.512 357.902
 400.781 357.215 400.781 c 356.531 400.781 355.992 400.512 355.602 399.969
 c 355.211 399.43 355.016 398.684 355.016 397.73 c 355.016 396.781 355.211
 396.035 355.602 395.492 c 355.992 394.949 356.531 394.68 357.215 394.68
 c 357.902 394.68 358.438 394.949 358.828 395.492 c 359.223 396.035 359.418
 396.781 359.418 397.73 c f
369.641 398.062 m 369.641 397.43 l 363.691 397.43 l 363.75 396.539 364.016
 395.859 364.496 395.395 c 364.977 394.926 365.645 394.691 366.504 394.691
 c 367 394.691 367.48 394.754 367.949 394.875 c 368.414 394.996 368.879 
395.18 369.34 395.426 c 369.34 394.199 l 368.875 394.004 368.398 393.855
 367.91 393.75 c 367.422 393.648 366.93 393.594 366.426 393.594 c 365.172
 393.594 364.176 393.961 363.441 394.691 c 362.707 395.422 362.34 396.414
 362.34 397.66 c 362.34 398.949 362.688 399.973 363.387 400.727 c 364.082
 401.484 365.02 401.863 366.203 401.863 c 367.262 401.863 368.098 401.523
 368.715 400.84 c 369.332 400.16 369.641 399.234 369.641 398.062 c 368.348
 398.441 m 368.336 399.148 368.141 399.711 367.754 400.133 c 367.367 400.559
 366.852 400.77 366.215 400.77 c 365.492 400.77 364.918 400.562 364.484 
400.156 c 364.051 399.75 363.801 399.172 363.734 398.434 c h
368.348 398.441 m f
376.324 400.465 m 376.18 400.551 376.023 400.613 375.852 400.652 c 375.68
 400.691 375.492 400.711 375.285 400.711 c 374.555 400.711 373.992 400.473
 373.602 400 c 373.211 399.523 373.016 398.84 373.016 397.949 c 373.016 
393.801 l 371.715 393.801 l 371.715 401.676 l 373.016 401.676 l 373.016 
400.449 l 373.285 400.93 373.641 401.285 374.074 401.516 c 374.512 401.746
 375.043 401.863 375.668 401.863 c 375.754 401.863 375.852 401.859 375.961
 401.848 c 376.07 401.836 376.188 401.816 376.32 401.793 c h
376.324 400.465 m f
388.391 400.164 m 388.715 400.746 389.102 401.176 389.555 401.449 c 390.004
 401.727 390.531 401.863 391.141 401.863 c 391.961 401.863 392.594 401.578
 393.039 401.004 c 393.484 400.43 393.707 399.613 393.707 398.555 c 393.707
 393.801 l 392.406 393.801 l 392.406 398.512 l 392.406 399.266 392.273 399.824
 392.004 400.191 c 391.738 400.555 391.332 400.738 390.785 400.738 c 390.113
 400.738 389.582 400.516 389.191 400.07 c 388.805 399.625 388.609 399.02
 388.609 398.25 c 388.609 393.801 l 387.309 393.801 l 387.309 398.512 l 
387.309 399.27 387.176 399.832 386.91 400.195 c 386.641 400.559 386.23 400.738
 385.672 400.738 c 385.012 400.738 384.484 400.516 384.094 400.07 c 383.707
 399.621 383.512 399.016 383.512 398.25 c 383.512 393.801 l 382.211 393.801
 l 382.211 401.676 l 383.512 401.676 l 383.512 400.449 l 383.809 400.934
 384.16 401.289 384.574 401.52 c 384.984 401.75 385.477 401.863 386.043 
401.863 c 386.617 401.863 387.102 401.719 387.504 401.426 c 387.902 401.137
 388.199 400.715 388.391 400.164 c f
399.34 400.77 m 398.645 400.77 398.098 400.496 397.695 399.957 c 397.289
 399.414 397.09 398.672 397.09 397.73 c 397.09 396.789 397.289 396.047 397.691
 395.504 c 398.09 394.965 398.641 394.691 399.34 394.691 c 400.027 394.691
 400.574 394.965 400.977 395.508 c 401.379 396.051 401.582 396.793 401.582
 397.73 c 401.582 398.664 401.379 399.402 400.977 399.949 c 400.574 400.496
 400.027 400.77 399.34 400.77 c 399.34 401.863 m 400.465 401.863 401.348
 401.496 401.988 400.766 c 402.633 400.035 402.953 399.023 402.953 397.73
 c 402.953 396.441 402.633 395.43 401.988 394.695 c 401.348 393.961 400.465
 393.594 399.34 393.594 c 398.211 393.594 397.324 393.961 396.684 394.695
 c 396.047 395.43 395.727 396.441 395.727 397.73 c 395.727 399.023 396.047
 400.035 396.684 400.766 c 397.324 401.496 398.211 401.863 399.34 401.863
 c f
406.379 403.91 m 406.379 401.676 l 409.043 401.676 l 409.043 400.668 l 
406.379 400.668 l 406.379 396.395 l 406.379 395.754 406.465 395.34 406.641
 395.156 c 406.816 394.973 407.176 394.883 407.715 394.883 c 409.043 394.883
 l 409.043 393.801 l 407.715 393.801 l 406.715 393.801 406.027 393.984 405.648
 394.359 c 405.27 394.73 405.078 395.41 405.078 396.395 c 405.078 400.668
 l 404.129 400.668 l 404.129 401.676 l 405.078 401.676 l 405.078 403.91 
l h
406.379 403.91 m f
413.797 400.77 m 413.102 400.77 412.555 400.496 412.152 399.957 c 411.746
 399.414 411.547 398.672 411.547 397.73 c 411.547 396.789 411.746 396.047
 412.145 395.504 c 412.547 394.965 413.098 394.691 413.797 394.691 c 414.484
 394.691 415.031 394.965 415.434 395.508 c 415.836 396.051 416.039 396.793
 416.039 397.73 c 416.039 398.664 415.836 399.402 415.434 399.949 c 415.031
 400.496 414.484 400.77 413.797 400.77 c 413.797 401.863 m 414.922 401.863
 415.805 401.496 416.445 400.766 c 417.09 400.035 417.41 399.023 417.41 
397.73 c 417.41 396.441 417.09 395.43 416.445 394.695 c 415.805 393.961 
414.922 393.594 413.797 393.594 c 412.664 393.594 411.781 393.961 411.141
 394.695 c 410.5 395.43 410.184 396.441 410.184 397.73 c 410.184 399.023
 410.5 400.035 411.141 400.766 c 411.781 401.496 412.664 401.863 413.797
 401.863 c f
424.117 400.465 m 423.973 400.551 423.812 400.613 423.645 400.652 c 423.473
 400.691 423.285 400.711 423.078 400.711 c 422.348 400.711 421.785 400.473
 421.395 400 c 421 399.523 420.805 398.84 420.805 397.949 c 420.805 393.801
 l 419.504 393.801 l 419.504 401.676 l 420.805 401.676 l 420.805 400.449
 l 421.078 400.93 421.434 401.285 421.867 401.516 c 422.305 401.746 422.836
 401.863 423.457 401.863 c 423.547 401.863 423.645 401.859 423.754 401.848
 c 423.859 401.836 423.98 401.816 424.109 401.793 c h
424.117 400.465 m f
Q Q
showpage
%%Trailer
end restore
%%EOF
